"LightmappedGeneric"
{
	"$basetexture" "london/tile/london_tilewall_003e"
	"%keywords" "tf,london"
        "$surfacetexture" "tile"
	//"$envmap" "env_cubemap"
	//"$envmapcontrast" 0.2
	//"$envmapsaturation" 1
	//"$envmaptint" "[ .75 .75 .75]"
	//"$normalmapalphaenvmapmask" 1
	"$surfaceprop" "tile"
}
