"LightmappedGeneric"
{
	"$baseTexture" "london/tile/london_tilefloor_002b"
	//"$envmap" "env_cubemap"
	//"$envmapcontrast" 1
	//"$envmapsaturation" 1
	//"$envmaptint" "[ .75 .75 .75]"
	//"$normalmapalphaenvmapmask" 1
	"$surfaceprop" "tile"
	"$bumpmap" "Tile/floor_tile_006a_normal"
	"%keywords" "tf,london"
}
