"vertexlitgeneric"
{
	"$basetexture" "pit/stone_trim1a"
	"$bumpmap" "pit/stone_trim1_normal"
	"%keywords" "tf"
	"$detail" "overlays/detail007"
	"$detailscale" "1.9"
	"$detailblendmode" "0"
	"$detailblendfactor" "1"
	"$surfaceprop" "rock"
}
