"LightMappedGeneric"
{
	"$basetexture"	"london/stone/london_stonefacade_002a"
	"%keywords" "tf,london"
	"$detail" "overlays/detail001"
	"$detailscale" "1.9"
	"$detailblendmode" "0"
	"$detailblendfactor" "1"
}