"Patch"
{
	include "materials/models/player/pyro/pyro_gibs_base.vmt"
	
	insert
	{
		"$baseTexture" "models/player/pyro/pyro_gibs_custom"
		
		"$blendtintbybasealpha"		"1"
		//"$blendtintcoloroverbase"		"1"
		"$colortint_base"		"{0 0 0}"
		"$color2"		"{93 72 117}"
		"$colortint_tmp"		"[0 0 0]"	
		
		"Proxies"
		{
			"ItemTintColor"
			{
				"resultVar"		"$colortint_tmp"
			}
			"SelectFirstIfNonZero"
			{
				"srcVar1"		"$colortint_tmp"
				"srcVar2"		"$colortint_base"
				"resultVar"		"$color2"
			}
		}
	}
}