"LightmappedGeneric"
{
	"$basetexture" "london/signs/london_sign_tube_002"
        "$decal" 1
	"$decalscale" 1
	"$translucent" 1
	"$vertexcolor" "1"
	"$vertexalpha" "1"
	"%keywords" "tf,london"
}