"LightMappedGeneric"
{
	"$basetexture"	"Concrete/concretewall011"
	"%keywords" "tf"
	"$detail" "overlays/detail001"
	"$detailscale" "1.9"
	"$detailblendmode" "0"
	"$detailblendfactor" "1"
	
	$color "[ 0.3 0.3 0.3 ]"
}