"LightmappedGeneric"
{
	"$baseTexture" "pit/stone_trim"
	"$bumpmap" "pit/stone_trim_normal"

  
	"$surfaceprop" "concrete"
	"%keywords" "tf"
	
//	"$detail" "overlays/detail001"
//	"$detailscale" "1.9"
//	"$detailblendmode" "0"
//	"$detailblendfactor" "1"
}
