"VertexLitGeneric"
{
	"$baseTexture" "models\backpack\announcer_monitor_admin"
	

	"$glowcolor" "1"
	"$phong" "1"
	"$phongexponent" "3"
	"$phongboost" "0"	
	"$lightwarptexture" "models\lightwarps\weapon_lightwarp"
	"$phongfresnelranges"	"[.25 .5 1]"

	"$basemapalphaphongmask" "1"

	"$rimlight" "1"
	"$rimlightexponent" "3"	
	"$rimlightboost" ".50"


	// Cloaking
	"$cloakPassEnabled" "1"
	"Proxies"
	{
		"weapon_invis"
		{
		}
		"ModelGlowColor"
		{
			"resultVar""$glowcolor"
		}
		"Equals"
		{
			"srcVar1"	"$glowcolor"
			"resultVar"	"$selfillumtint"
		}
		"Equals"
		{
			"srcVar1"	"$glowcolor"
			"resultVar"	"$color2"
		}
		"spy_invis"
		{
		}
	}
}


