"LightmappedGeneric"
{
	"$baseTexture" "spillway_event/westernwooddoor01"
	//"$surfaceprop" "glass"
	"$decal" 1
	"$decalscale" 1
	//"$translucent" 1
	"$vertexcolor" "1"
	//"$vertexalpha" "1"
	$alphatest 1
	"%keywords" "tf"
}

