"VertexlitGeneric"
{
	"$baseTexture" "models\props_dock\torpedo_06"

	"$phongtint"	"[.7 .9 .7]"
	"$phong" "1"
	"$phongexponent" "10"
//"$lightwarptexture"		"models/player/pyro/pyro_lightwarp"

	"$phongboost" ".4"	
	"$phongfresnelranges"	"[1.5 3 1]"
	"$basemapalphaphongmask" "1"