// Choreo version 1
actor "Mercenary"
{
  channel "audio"
  {
  }
  channel "emotion"
  {
    event expression "mad"
    {
      time 0.010416 1.833333
      param "player\Mercenary\emotion\emotion"
      param2 "mad"
      event_ramp
      {
        0.2632 1.0000 "curve_easein_to_curve_easeout"
        0.4735 1.0000 "curve_easein_to_curve_easeout"
        0.6576 1.0000
        1.0901 0.9307
      }
    }
  }
}

scalesettings
{
  "CChoreoView" "64"
  "ExpressionTool" "100"
  "RampTool" "66"
  "GestureTool" "100"
  "SceneRampTool" "100"
}
fps 60
snap off
ignorePhonemes off
