// Choreo version 1
actor "Mercenary"
{
  channel "audio"
  {
    event speak "Mercenary.AutoOnFire03"
    {
      time 0.000000 2.481633
      param "Mercenary.AutoOnFire03"
      fixedlength
      cctype "cc_master"
      cctoken ""
    }
  }
  channel "emotion"
  {
    event expression "painBigUpper"
    {
      time 0.031250 2.468750
      param "player\Mercenary\emotion\emotion"
      param2 "painBigUpper"
      event_ramp
      {
        0.0879 0.6400 "curve_easein_to_curve_easeout"
        0.8242 0.6457 "curve_easein_to_curve_easeout"
        1.1273 0.8829 "curve_easein_to_curve_easeout"
        2.2913 0.8886 "curve_easein_to_curve_easeout"
      }
    }
  }
}

scalesettings
{
  "CChoreoView" "64"
  "ExpressionTool" "100"
  "RampTool" "66"
  "GestureTool" "100"
  "SceneRampTool" "100"
}
fps 60
snap off
ignorePhonemes off
