// Choreo version 1
actor "Mercenary"
{
  channel "audio"
  {
    event speak "Mercenary.ExplosiveKill02"
    {
      time 0.000000 2.200091
      param "Mercenary.ExplosiveKill02"
      fixedlength
      cctype "cc_master"
      cctoken ""
    }
  }
  channel "emotion"
  {
    event expression "madUpper"
    {
      time 0.000000 2.314674
      param "player\Mercenary\emotion\emotion"
      param2 "madUpper"
      event_ramp
      {
        0.2500 0.8600 "curve_easein_to_curve_easeout"
        2.0026 0.8629 "curve_easein_to_curve_easeout"
      }
    }
  }
}

scalesettings
{
  "CChoreoView" "64"
  "ExpressionTool" "100"
  "RampTool" "66"
  "GestureTool" "100"
  "SceneRampTool" "100"
}
fps 60
snap off
ignorePhonemes off
