actor "Mercenary"
{
  channel "sequence"
  {
    event sequence "winpanel_first"
    {
      time 0 6.6‬
      param "winpanel_first"
    }
  }
}

scalesettings
{
  "CChoreoView" "64"
  "ExpressionTool" "100"
  "RampTool" "66"
  "GestureTool" "100"
  "SceneRampTool" "100"
}

fps 30
snap off
ignorePhonemes off
