// Choreo version 1
actor "Mercenary"
{
  channel "audio"
  {
    event speak "Mercenary.GoodJob02"
    {
      time 0.000000 1.071020
      param "Mercenary.GoodJob02"
      fixedlength
      cctype "cc_master"
      cctoken ""
    }
  }
  channel "emotion"
  {
    event expression "happyBigUpper"
    {
      time 0.031250 1.229167
      param "player\Mercenary\emotion\emotion"
      param2 "happyBigUpper"
      event_ramp
      {
        0.2333 0.6714 "curve_catmullrom_normalize_x_to_curve_catmullrom_normalize_x"
        0.9248 0.8029 "curve_easein_to_curve_easeout"
      }
    }
  }
}

scalesettings
{
  "CChoreoView" "64"
  "ExpressionTool" "100"
  "RampTool" "66"
  "GestureTool" "100"
  "SceneRampTool" "100"
}
fps 60
snap off
ignorePhonemes off
