// Choreo version 1
actor "Mercenary"
{
  channel "audio"
  {
    event speak "Mercenary.HeadRight01"
    {
      time 0.000000 0.792381
      param "Mercenary.HeadRight01"
      fixedlength
      cctype "cc_master"
      cctoken ""
    }
  }
  channel "emotion"
  {
    event expression "madUpper"
    {
      time 0.000000 0.938214
      param "player\Mercenary\emotion\emotion"
      param2 "madUpper"
      event_ramp
      {
        0.2076 0.6771 "curve_catmullrom_normalize_x_to_curve_catmullrom_normalize_x"
        0.6928 0.7657 "curve_easein_to_curve_easeout"
      }
    }
  }
}

scalesettings
{
  "CChoreoView" "64"
  "ExpressionTool" "100"
  "RampTool" "66"
  "GestureTool" "100"
  "SceneRampTool" "100"
}
fps 60
snap off
ignorePhonemes off
