// Choreo version 1
actor "Mercenary"
{
  channel "audio"
  {
    event speak "Mercenary.Jeers01"
    {
      time 0.000000 0.888163
      param "Mercenary.Jeers01"
      fixedlength
      cctype "cc_master"
      cctoken ""
    }
  }
  channel "emotion"
  {
    event expression "madUpper"
    {
      time 0.000000 0.971496
      param "player\Mercenary\emotion\emotion"
      param2 "madUpper"
      event_ramp
      {
        0.2773 0.6543 "curve_catmullrom_normalize_x_to_curve_catmullrom_normalize_x"
        0.8442 0.7714 "curve_catmullrom_normalize_x_to_curve_catmullrom_normalize_x"
      }
    }
  }
}

scalesettings
{
  "CChoreoView" "64"
  "ExpressionTool" "100"
  "RampTool" "66"
  "GestureTool" "100"
  "SceneRampTool" "100"
}
fps 60
snap off
ignorePhonemes off
