// Choreo version 1
actor "Mercenary"
{
  channel "audio"
  {
    event speak "Mercenary.LaughShort04"
    {
      time 0.000000 1.079728
      param "Mercenary.LaughShort04"
      fixedlength
      cctype "cc_master"
      cctoken ""
    }
  }
  channel "emotion"
  {
    event expression "happySmall"
    {
      time 0.829728 2.225561
      param "player\Mercenary\emotion\emotion"
      param2 "happySmall"
      event_ramp
      {
        0.5000 1.0000 "curve_easein_to_curve_easeout"
        0.7474 1.0000 "curve_easein_to_curve_easeout"
      }
    }
    event expression "happyBigUpper"
    {
      time 0.031250 1.114583
      param "player\Mercenary\emotion\emotion"
      param2 "happyBigUpper"
      event_ramp
      {
        0.1061 0.4771
        0.4091 0.6057 "curve_easein_to_curve_easeout"
        0.8818 0.6000 "curve_easein_to_curve_easeout"
      }
    }
  }
}

scalesettings
{
  "CChoreoView" "64"
  "ExpressionTool" "100"
  "RampTool" "66"
  "GestureTool" "100"
  "SceneRampTool" "100"
}
fps 60
snap off
ignorePhonemes off
