// Choreo version 1
actor "Mercenary"
{
  channel "audio"
  {
    event speak "Mercenary.PainCrticialDeath03"
    {
      time 0.000000 2.632562
      param "Mercenary.PainCrticialDeath03"
      fixedlength
      cctype "cc_master"
      cctoken ""
    }
  }
  channel "emotion"
  {
    event expression "painBigUpper"
    {
      time 0.000000 2.705479
      param "player\Mercenary\emotion\emotion"
      param2 "painBigUpper"
      event_ramp
      {
        0.2167 0.9829 "curve_easein_to_curve_easeout"
        2.5085 0.8914 "curve_catmullrom_normalize_x_to_curve_catmullrom_normalize_x"
      }
    }
  }
}

scalesettings
{
  "CChoreoView" "64"
  "ExpressionTool" "100"
  "RampTool" "66"
  "GestureTool" "100"
  "SceneRampTool" "100"
}
fps 60
snap off
ignorePhonemes off
