// Choreo version 1
actor "Mercenary"
{
  channel "audio"
  {
    event speak "Mercenary.Revenge03"
    {
      time 0.000000 2.385850
      param "Mercenary.Revenge03"
      fixedlength
      cctype "cc_master"
      cctoken ""
    }
  }
  channel "emotion"
  {
    event expression "madUpper"
    {
      time 0.000000 2.552517
      param "player\Mercenary\emotion\emotion"
      param2 "madUpper"
      event_ramp
      {
        0.2500 0.5257 "curve_easein_to_curve_easeout"
        1.6985 0.5229 "curve_easein_to_curve_easeout"
        2.1071 0.7143 "curve_easein_to_curve_easeout"
      }
    }
  }
}

scalesettings
{
  "CChoreoView" "64"
  "ExpressionTool" "100"
  "RampTool" "66"
  "GestureTool" "100"
  "SceneRampTool" "100"
}
fps 60
snap off
ignorePhonemes off
