"VertexlitGeneric"
{
	"$baseTexture" "models/weapons/c_items/hardhat_mine"
	"$bumpmap" "models/player/items/all_class/hardhat_tower_normal"
	"$detail" "effects/tiledfire/fireLayeredSlowTiled512.vtf"	
	"$detailscale" "5"
	"$detailblendfactor" .01
	"$detailblendmode" 6
	"$yellow" "0"
	
	"$blendtintbybasealpha" "1" 
 	"$blendtintcoloroverbase" "0"  

	"$colortint_base" "{200 200 200}"  
	"$colortint_tmp" "[0 0 0]" 

	"$phong" "1"
	"$phongexponent" "50"
	"$phongboost" "2"
	"$lightwarptexture" "models/player/pyro/pyro_lightwarp"
	"$phongfresnelranges"	"[.25 1 4]"

	"$rimlight" "1"
	"$rimlightexponent" "4"
	"$rimlightboost" ".65"
	// Cloaking
	"$cloakPassEnabled" "1"

	"Proxies"
	{
		"invis"
		{
		}
		"AnimatedTexture"
		{
			"animatedtexturevar" "$detail"
			"animatedtextureframenumvar" "$detailframe"
			"animatedtextureframerate" 30
		}
		"BurnLevel"
		{
			"resultVar" "$detailblendfactor"
		}
		"ItemTintColor"
		{
			"resultVar" "$colortint_tmp"
		}
		"SelectFirstIfNonZero"
		{
			"srcVar1"	"$colortint_tmp"
			"srcVar2"	"$colortint_base"
			"resultVar" "$color2"
		}
		"YellowLevel"
		{
			"resultVar" "$yellow"
		}
		"Multiply"
		{
			"srcVar1" "$color2"
			"srcVar2" "$yellow"
			"resultVar" "$color2"
		}
	}
}