"VertexLitGeneric" {
	"$basetexture" "models/props_gameplay/ladder"
	
	"$basemapalphaphongmask" "1"
	"$phong" "1"
	"$phongboost" "10"
	"$phongexponent" "25"
	"$phongfresnelranges" "[ 0.02 0.1 1 ]"
	
	"$rimlight" "1"
	"$rimlightboost" "2.5"
	"$rimlightexponent" "25"
	
	"$lightwarptexture" "models/buildables/sentry1/sentry1_lightwarp"
	
//	"$selfillum" "1"
//	"$selfillumtint" "[ 0.2 0.2 0.2 ]"
}