"Resource\OptionsSubAudio.res"
{
	"SFXSlider"
	{
		"ControlName"		"CCvarSlider"
		"fieldName"		"SFXSlider"
		"xpos"		"36"
		"ypos"		"43"
		"wide"		"175"
		"tall"		"50"
		"autoResize"		"0"
		"pinCorner"		"0"
		"RoundedCorners"		"15"
		"pin_corner_to_sibling"		"0"
		"pin_to_sibling_corner"		"0"
		"visible"		"1"
		"enabled"		"1"
		"tabPosition"		"1"
		"leftText"		"#GameUI_Low"
		"rightText"		"#GameUI_High"
	}
	"MusicSlider"
	{
		"ControlName"		"CCvarSlider"
		"fieldName"		"MusicSlider"
		"xpos"		"254"
		"ypos"		"43"
		"wide"		"175"
		"tall"		"50"
		"autoResize"		"0"
		"pinCorner"		"0"
		"RoundedCorners"		"15"
		"pin_corner_to_sibling"		"0"
		"pin_to_sibling_corner"		"0"
		"visible"		"1"
		"enabled"		"1"
		"tabPosition"		"2"
		"leftText"		"#GameUI_Low"
		"rightText"		"#GameUI_High"
	}
	"SoundQuality"
	{
		"ControlName"		"ComboBox"
		"fieldName"		"SoundQuality"
		"xpos"		"254"
		"ypos"		"116"
		"wide"		"175"
		"tall"		"24"
		"autoResize"		"0"
		"pinCorner"		"0"
		"RoundedCorners"		"15"
		"pin_corner_to_sibling"		"0"
		"pin_to_sibling_corner"		"0"
		"visible"		"1"
		"enabled"		"1"
		"tabPosition"		"4"
		"textHidden"		"0"
		"editable"		"0"
		"maxchars"		"-1"
		"NumericInputOnly"		"0"
		"unicode"		"0"
	}
	"SpeakerSetup"
	{
		"ControlName"		"ComboBox"
		"fieldName"		"SpeakerSetup"
		"xpos"		"36"
		"ypos"		"116"
		"wide"		"175"
		"tall"		"24"
		"autoResize"		"0"
		"pinCorner"		"0"
		"RoundedCorners"		"15"
		"pin_corner_to_sibling"		"0"
		"pin_to_sibling_corner"		"0"
		"visible"		"1"
		"enabled"		"1"
		"tabPosition"		"3"
		"textHidden"		"0"
		"editable"		"0"
		"maxchars"		"-1"
		"NumericInputOnly"		"0"
		"unicode"		"0"
	}
	"AudioSpokenLanguage"
	{
		"ControlName"		"ComboBox"
		"fieldName"		"AudioSpokenLanguage"
		"xpos"		"36"
		"ypos"		"179"
		"wide"		"175"
		"tall"		"24"
		"autoResize"		"0"
		"pinCorner"		"0"
		"RoundedCorners"		"15"
		"pin_corner_to_sibling"		"0"
		"pin_to_sibling_corner"		"0"
		"visible"		"1"
		"enabled"		"1"
		"tabPosition"		"7"
		"textHidden"		"0"
		"editable"		"0"
		"maxchars"		"-1"
		"NumericInputOnly"		"0"
		"unicode"		"0"
	}
	"snd_mute_losefocus"
	{
		"ControlName"		"CCvarToggleCheckButton"
		"fieldName"		"snd_mute_losefocus"
		"xpos"		"33"
		"ypos"		"230"
		"wide"		"430"
		"tall"		"28"
		"autoResize"		"0"
		"pinCorner"		"0"
		"RoundedCorners"		"15"
		"pin_corner_to_sibling"		"0"
		"pin_to_sibling_corner"		"0"
		"visible"		"1"
		"enabled"		"1"
		"tabPosition"		"1"
		"labelText"		"#GameUI_SndMuteLoseFocus"
		"textAlignment"		"west"
		"dulltext"		"0"
		"brighttext"		"0"
		"wrap"		"0"
		"centerwrap"		"0"
		"textinsetx"		"6"
		"textinsety"		"0"
		"auto_wide_tocontents"		"0"
		"use_proportional_insets"		"0"
		"Default"		"0"
	}
	"AudioSpokenLanguageLabel"
	{
		"ControlName"		"Label"
		"fieldName"		"AudioSpokenLanguageLabel"
		"xpos"		"36"
		"ypos"		"155"
		"wide"		"175"
		"tall"		"24"
		"autoResize"		"0"
		"pinCorner"		"0"
		"RoundedCorners"		"15"
		"pin_corner_to_sibling"		"0"
		"pin_to_sibling_corner"		"0"
		"visible"		"1"
		"enabled"		"1"
		"tabPosition"		"0"
		"labelText"		"#GAMEUI_AudioSpokenLanguage"
		"textAlignment"		"west"
		"dulltext"		"0"
		"brighttext"		"0"
		"wrap"		"0"
		"centerwrap"		"0"
		"textinsetx"		"0"
		"textinsety"		"0"
		"auto_wide_tocontents"		"0"
	}
	"RequiresRestartLabel"
	{
		"ControlName"		"Label"
		"fieldName"		"RequiresRestartLabel"
		"xpos"		"36"
		"ypos"		"199"
		"wide"		"175"
		"tall"		"24"
		"autoResize"		"0"
		"pinCorner"		"0"
		"RoundedCorners"		"15"
		"pin_corner_to_sibling"		"0"
		"pin_to_sibling_corner"		"0"
		"visible"		"1"
		"enabled"		"1"
		"tabPosition"		"0"
		"labelText"		"#GAMEUI_RequiresRestart"
		"textAlignment"		"west"
		"dulltext"		"0"
		"brighttext"		"0"
		"wrap"		"0"
		"centerwrap"		"0"
		"textinsetx"		"0"
		"textinsety"		"0"
		"auto_wide_tocontents"		"0"
	}
	"sfx label"
	{
		"ControlName"		"Label"
		"fieldName"		"sfx label"
		"xpos"		"36"
		"ypos"		"19"
		"wide"		"160"
		"tall"		"24"
		"autoResize"		"0"
		"pinCorner"		"0"
		"RoundedCorners"		"15"
		"pin_corner_to_sibling"		"0"
		"pin_to_sibling_corner"		"0"
		"visible"		"1"
		"enabled"		"1"
		"tabPosition"		"0"
		"labelText"		"#GameUI_SoundEffectVolume"
		"textAlignment"		"west"
		"associate"		"SFXSlider"
		"dulltext"		"0"
		"brighttext"		"0"
		"wrap"		"0"
		"centerwrap"		"0"
		"textinsetx"		"0"
		"textinsety"		"0"
		"auto_wide_tocontents"		"0"
	}
	"MusicVolumeLabel"
	{
		"ControlName"		"Label"
		"fieldName"		"MusicVolumeLabel"
		"xpos"		"254"
		"ypos"		"19"
		"wide"		"160"
		"tall"		"24"
		"autoResize"		"0"
		"pinCorner"		"0"
		"RoundedCorners"		"15"
		"pin_corner_to_sibling"		"0"
		"pin_to_sibling_corner"		"0"
		"visible"		"1"
		"enabled"		"1"
		"tabPosition"		"0"
		"labelText"		"#GameUI_MusicVolume"
		"textAlignment"		"west"
		"associate"		"MusicSlider"
		"dulltext"		"0"
		"brighttext"		"0"
		"wrap"		"0"
		"centerwrap"		"0"
		"textinsetx"		"0"
		"textinsety"		"0"
		"auto_wide_tocontents"		"0"
	}
	"SoundQualityLabel"
	{
		"ControlName"		"Label"
		"fieldName"		"SoundQualityLabel"
		"xpos"		"254"
		"ypos"		"92"
		"wide"		"179"
		"tall"		"24"
		"autoResize"		"0"
		"pinCorner"		"0"
		"RoundedCorners"		"15"
		"pin_corner_to_sibling"		"0"
		"pin_to_sibling_corner"		"0"
		"visible"		"1"
		"enabled"		"1"
		"tabPosition"		"0"
		"labelText"		"#GameUI_SoundQuality"
		"textAlignment"		"west"
		"associate"		"SoundQuality"
		"dulltext"		"0"
		"brighttext"		"0"
		"wrap"		"0"
		"centerwrap"		"0"
		"textinsetx"		"0"
		"textinsety"		"0"
		"auto_wide_tocontents"		"0"
	}
	"SpeakerConfigLabel"
	{
		"ControlName"		"Label"
		"fieldName"		"SpeakerConfigLabel"
		"xpos"		"36"
		"ypos"		"92"
		"wide"		"184"
		"tall"		"24"
		"autoResize"		"0"
		"pinCorner"		"0"
		"RoundedCorners"		"15"
		"pin_corner_to_sibling"		"0"
		"pin_to_sibling_corner"		"0"
		"visible"		"1"
		"enabled"		"1"
		"tabPosition"		"0"
		"labelText"		"#GameUI_SpeakerConfiguration"
		"textAlignment"		"west"
		"associate"		"SpeakerSetup"
		"dulltext"		"0"
		"brighttext"		"0"
		"wrap"		"0"
		"centerwrap"		"0"
		"textinsetx"		"0"
		"textinsety"		"0"
		"auto_wide_tocontents"		"0"
	}
	"TestSpeakersWarning"
	{
		"ControlName"		"Label"
		"fieldName"		"TestSpeakersWarning"
		"xpos"		"36"
		"ypos"		"222"
		"wide"		"182"
		"tall"		"40"
		"autoResize"		"0"
		"pinCorner"		"0"
		"RoundedCorners"		"15"
		"pin_corner_to_sibling"		"0"
		"pin_to_sibling_corner"		"0"
		"visible"		"0"
		"enabled"		"1"
		"tabPosition"		"0"
		"labelText"		"#GameUI_TestSpeakerSettingsWarning"
		"textAlignment"		"north-west"
		"dulltext"		"0"
		"brighttext"		"0"
		"Font"		"DefaultSmall"
		"wrap"		"1"
		"centerwrap"		"0"
		"textinsetx"		"0"
		"textinsety"		"0"
		"auto_wide_tocontents"		"0"
	}
	"TestSpeakers"
	{
		"ControlName"		"Button"
		"fieldName"		"TestSpeakers"
		"xpos"		"36"
		"ypos"		"194"
		"wide"		"160"
		"tall"		"24"
		"autoResize"		"0"
		"pinCorner"		"0"
		"RoundedCorners"		"15"
		"pin_corner_to_sibling"		"0"
		"pin_to_sibling_corner"		"0"
		"visible"		"0"
		"enabled"		"1"
		"tabPosition"		"5"
		"labelText"		"#GameUI_TestSpeakerSettings"
		"textAlignment"		"west"
		"dulltext"		"0"
		"brighttext"		"0"
		"wrap"		"0"
		"centerwrap"		"0"
		"textinsetx"		"6"
		"textinsety"		"0"
		"auto_wide_tocontents"		"0"
		"command"		"TestSpeakers"
		"Default"		"1"
		"selected"		"0"
	}
}
