"resource/OptionsSubVideoAdvancedDlg.res"
{
	"OptionsSubVideoAdvancedDlg"
	{
		"ControlName"		"COptionsSubVideoAdvancedDlg"
		"fieldName"		"OptionsSubVideoAdvancedDlg"
		"xpos"		"719"
		"ypos"		"406"
		"wide"		"482"
		"tall"		"450" [!$OSX]
		"tall"		"358" [$OSX]
		"autoResize"		"0"
		"pinCorner"		"0"
		"visible"		"1"
		"enabled"		"1"
		"tabPosition"		"0"
		"settitlebarvisible"		"1"
		"title"		"#GameUI_VideoAdvanced_Title"
	}
	"frame_topGrip"
	{
		"ControlName"		"Panel"
		"fieldName"		"frame_topGrip"
		"xpos"		"8"
		"ypos"		"0"
		"wide"		"466"
		"tall"		"5"
		"autoResize"		"0"
		"pinCorner"		"0"
		"visible"		"1"
		"enabled"		"1"
		"tabPosition"		"0"
	}
	"frame_bottomGrip"
	{
		"ControlName"		"Panel"
		"fieldName"		"frame_bottomGrip"
		"xpos"		"8"
		"ypos"		"503"
		"wide"		"456"
		"tall"		"5"
		"autoResize"		"0"
		"pinCorner"		"0"
		"visible"		"1"
		"enabled"		"1"
		"tabPosition"		"0"
	}
	"frame_leftGrip"
	{
		"ControlName"		"Panel"
		"fieldName"		"frame_leftGrip"
		"xpos"		"0"
		"ypos"		"8"
		"wide"		"5"
		"tall"		"492"
		"autoResize"		"0"
		"pinCorner"		"0"
		"visible"		"1"
		"enabled"		"1"
		"tabPosition"		"0"
	}
	"frame_rightGrip"
	{
		"ControlName"		"Panel"
		"fieldName"		"frame_rightGrip"
		"xpos"		"477"
		"ypos"		"8"
		"wide"		"5"
		"tall"		"482"
		"autoResize"		"0"
		"pinCorner"		"0"
		"visible"		"1"
		"enabled"		"1"
		"tabPosition"		"0"
	}
	"frame_tlGrip"
	{
		"ControlName"		"Panel"
		"fieldName"		"frame_tlGrip"
		"xpos"		"0"
		"ypos"		"0"
		"wide"		"8"
		"tall"		"8"
		"autoResize"		"0"
		"pinCorner"		"0"
		"visible"		"1"
		"enabled"		"1"
		"tabPosition"		"0"
	}
	"frame_trGrip"
	{
		"ControlName"		"Panel"
		"fieldName"		"frame_trGrip"
		"xpos"		"474"
		"ypos"		"0"
		"wide"		"8"
		"tall"		"8"
		"autoResize"		"0"
		"pinCorner"		"0"
		"visible"		"1"
		"enabled"		"1"
		"tabPosition"		"0"
	}
	"frame_blGrip"
	{
		"ControlName"		"Panel"
		"fieldName"		"frame_blGrip"
		"xpos"		"0"
		"ypos"		"500"
		"wide"		"8"
		"tall"		"8"
		"autoResize"		"0"
		"pinCorner"		"0"
		"visible"		"1"
		"enabled"		"1"
		"tabPosition"		"0"
	}
	"frame_brGrip"
	{
		"ControlName"		"Panel"
		"fieldName"		"frame_brGrip"
		"xpos"		"464"
		"ypos"		"490"
		"wide"		"18"
		"tall"		"18"
		"autoResize"		"0"
		"pinCorner"		"0"
		"visible"		"1"
		"enabled"		"1"
		"tabPosition"		"0"
	}
	"frame_caption"
	{
		"ControlName"		"Panel"
		"fieldName"		"frame_caption"
		"xpos"		"0"
		"ypos"		"0"
		"wide"		"472"
		"tall"		"23"
		"autoResize"		"0"
		"pinCorner"		"0"
		"visible"		"1"
		"enabled"		"1"
		"tabPosition"		"0"
	}
	"frame_minimize"
	{
		"ControlName"		"Button"
		"fieldName"		"frame_minimize"
		"xpos"		"0"
		"ypos"		"0"
		"wide"		"18"
		"tall"		"18"
		"autoResize"		"0"
		"pinCorner"		"0"
		"visible"		"0"
		"enabled"		"1"
		"tabPosition"		"0"
		"labelText"		"0"
		"textAlignment"		"north-west"
		"dulltext"		"0"
		"brighttext"		"0"
		"wrap"		"0"
		"Default"		"0"
	}
	"frame_maximize"
	{
		"ControlName"		"Button"
		"fieldName"		"frame_maximize"
		"xpos"		"0"
		"ypos"		"0"
		"wide"		"18"
		"tall"		"18"
		"autoResize"		"0"
		"pinCorner"		"0"
		"visible"		"0"
		"enabled"		"1"
		"tabPosition"		"0"
		"labelText"		"1"
		"textAlignment"		"north-west"
		"dulltext"		"0"
		"brighttext"		"0"
		"wrap"		"0"
		"Default"		"0"
	}
	"frame_mintosystray"
	{
		"ControlName"		"Button"
		"fieldName"		"frame_mintosystray"
		"xpos"		"0"
		"ypos"		"0"
		"wide"		"18"
		"tall"		"18"
		"autoResize"		"0"
		"pinCorner"		"0"
		"visible"		"0"
		"enabled"		"1"
		"tabPosition"		"0"
		"labelText"		"o"
		"textAlignment"		"north-west"
		"dulltext"		"0"
		"brighttext"		"0"
		"wrap"		"0"
		"Command"		"MinimizeToSysTray"
		"Default"		"0"
	}
	"frame_close"
	{
		"ControlName"		"Button"
		"fieldName"		"frame_close"
		"xpos"		"457"
		"ypos"		"8"
		"wide"		"18"
		"tall"		"18"
		"autoResize"		"0"
		"pinCorner"		"0"
		"visible"		"1"
		"enabled"		"1"
		"tabPosition"		"0"
		"labelText"		"r"
		"textAlignment"		"north-west"
		"dulltext"		"0"
		"brighttext"		"0"
		"wrap"		"0"
		"Default"		"0"
	}
	"frame_menu"
	{
		"ControlName"		"FrameSystemButton"
		"fieldName"		"frame_menu"
		"xpos"		"7"
		"ypos"		"8"
		"wide"		"18"
		"tall"		"18"
		"autoResize"		"0"
		"pinCorner"		"0"
		"visible"		"1"
		"enabled"		"1"
		"tabPosition"		"0"
		"textAlignment"		"west"
		"dulltext"		"0"
		"brighttext"		"0"
		"wrap"		"0"
		"Default"		"0"
	}
	"ModelDetail"
	{
		"ControlName"		"ComboBox"
		"fieldName"		"ModelDetail"
		"xpos"		"22"
		"ypos"		"58"
		"wide"		"132"
		"tall"		"24"
		"autoResize"		"0"
		"pinCorner"		"0"
		"visible"		"1"
		"enabled"		"1"
		"tabPosition"		"1"
		"textHidden"		"0"
		"editable"		"0"
		"maxchars"		"-1"
		"NumericInputOnly"		"0"
		"unicode"		"0"
	}
	"TextureSlider"
	{
		"ControlName"		"CCvarSlider"
		"fieldName"		"TextureSlider"
		"xpos"		"176"
		"ypos"		"58"
		"wide"		"132"
		"tall"		"40"
		"autoResize"		"0"
		"pinCorner"		"0"
		"visible"		"1"
		"enabled"		"1"
		"tabPosition"		"2"
		"leftText"		"Potato"
		"rightText"		"Best"
		"minvalue"		"-10"
		"maxvalue"		"10"
		"cvar_name"		"of_picmip"
		"allowoutofrange"		"1"
	}
	"AntialiasingMode"
	{
		"ControlName"		"ComboBox"
		"fieldName"		"AntialiasingMode"
		"xpos"		"22"
		"ypos"		"196"
		"wide"		"132"
		"tall"		"24"
		"autoResize"		"0"
		"pinCorner"		"0"
		"visible"		"1"
		"enabled"		"1"
		"tabPosition"		"7"
		"textHidden"		"0"
		"editable"		"0"
		"maxchars"		"-1"
		"NumericInputOnly"		"0"
		"unicode"		"0"
	}
	"FilteringMode"
	{
		"ControlName"		"ComboBox"
		"fieldName"		"FilteringMode"
		"xpos"		"176"
		"ypos"		"196"
		"wide"		"132"
		"tall"		"24"
		"autoResize"		"0"
		"pinCorner"		"0"
		"visible"		"1"
		"enabled"		"1"
		"tabPosition"		"8"
		"textHidden"		"0"
		"editable"		"0"
		"maxchars"		"-1"
		"NumericInputOnly"		"0"
		"unicode"		"0"
	}
	"ShadowDetail"
	{
		"ControlName"		"ComboBox"
		"fieldName"		"ShadowDetail"
		"xpos"		"176"
		"ypos"		"118"
		"wide"		"132"
		"tall"		"24"
		"autoResize"		"0"
		"pinCorner"		"0"
		"visible"		"1"
		"enabled"		"1"
		"tabPosition"		"5"
		"textHidden"		"0"
		"editable"		"0"
		"maxchars"		"-1"
		"NumericInputOnly"		"0"
		"unicode"		"0"
	}
	"Bloom"
	{
		"ControlName"		"CvarToggleCheckButton"
		"fieldName"		"Bloom"
		"xpos"		"22"
		"ypos"		"316"
		"wide"		"120"
		"tall"		"24"
		"autoResize"		"0"
		"pinCorner"		"0"
		"visible"		"1" [!$OSX]
		"visible"		"0" [$OSX]
		"enabled"		"1"
		"tabPosition"		"13"
		"labelText"		"#GameUI_Bloom"
		"textAlignment"		"west"
		"dulltext"		"0"
		"brighttext"		"0"
		"wrap"		"0"
		"Default"		"1"
		"selected"		"0"
	}
	"WaterDetail"
	{
		"ControlName"		"ComboBox"
		"fieldName"		"WaterDetail"
		"xpos"		"22"
		"ypos"		"118"
		"wide"		"132"
		"tall"		"24"
		"autoResize"		"0"
		"pinCorner"		"0"
		"visible"		"1"
		"enabled"		"1"
		"tabPosition"		"4"
		"textHidden"		"0"
		"editable"		"0"
		"maxchars"		"-1"
		"NumericInputOnly"		"0"
		"unicode"		"0"
	}
	"VSync"
	{
		"ControlName"		"ComboBox"
		"fieldName"		"VSync"
		"xpos"		"330"
		"ypos"		"196"
		"wide"		"132"
		"tall"		"24"
		"autoResize"		"0"
		"pinCorner"		"0"
		"visible"		"1"
		"enabled"		"1"
		"tabPosition"		"9"
		"textHidden"		"0"
		"editable"		"0"
		"maxchars"		"-1"
		"NumericInputOnly"		"0"
		"unicode"		"0"
	}
	"ShaderDetail"
	{
		"ControlName"		"ComboBox"
		"fieldName"		"ShaderDetail"
		"xpos"		"330"
		"ypos"		"58"
		"wide"		"132"
		"tall"		"24"
		"autoResize"		"0"
		"pinCorner"		"0"
		"visible"		"1"
		"enabled"		"1"
		"tabPosition"		"3"
		"textHidden"		"0"
		"editable"		"0"
		"maxchars"		"-1"
		"NumericInputOnly"		"0"
		"unicode"		"0"
	}
	"ColorCorrection"
	{
		"ControlName"		"ComboBox"
		"fieldName"		"ColorCorrection"
		"xpos"		"330"
		"ypos"		"118"
		"wide"		"132"
		"tall"		"24"
		"autoResize"		"0"
		"pinCorner"		"0"
		"visible"		"1"
		"enabled"		"1"
		"tabPosition"		"6"
		"textHidden"		"0"
		"editable"		"0"
		"maxchars"		"-1"
		"NumericInputOnly"		"0"
		"unicode"		"0"
	}
	"MotionBlur"
	{
		"ControlName"		"ComboBox"
		"fieldName"		"MotionBlur"
		"xpos"		"22"
		"ypos"		"258"
		"wide"		"132"
		"tall"		"24"
		"autoResize"		"0"
		"pinCorner"		"0"
		"visible"		"1"
		"enabled"		"1"
		"tabPosition"		"10"
		"textHidden"		"0"
		"editable"		"0"
		"maxchars"		"-1"
		"NumericInputOnly"		"0"
		"unicode"		"0"
	}
	"Tonemap"
	{
		"ControlName"		"CCvarToggleCheckButton"
		"fieldName"		"Tonemap"
		"xpos"		"250"
		"ypos"		"316"
		"wide"		"175"
		"tall"		"24"
		"autoResize"		"0"
		"pinCorner"		"0"
		"visible"		"1" [!$OSX]
		"visible"		"0" [$OSX]
		"enabled"		"1"
		"tabPosition"		"13"
		"labelText"		"#GameUI_Tonemap"
		"textAlignment"		"west"
		"dulltext"		"0"
		"brighttext"		"0"
		"wrap"		"0"
		"Default"		"1"
		"selected"		"0"
	}
	"Motion Blur Label"
	{
		"ControlName"		"Label"
		"fieldName"		"Motion Blur Label"
		"xpos"		"22"
		"ypos"		"232"
		"wide"		"138"
		"tall"		"24"
		"autoResize"		"0"
		"pinCorner"		"0"
		"visible"		"1"
		"enabled"		"1"
		"tabPosition"		"0"
		"labelText"		"#GameUI_MotionBlur"
		"textAlignment"		"west"
		"associate"		"Bloom"
		"dulltext"		"0"
		"brighttext"		"0"
		"wrap"		"0"
	}
	"Button1"
	{
		"ControlName"		"Button"
		"fieldName"		"Button1"
		"xpos"		"290"
		"ypos"		"408" [!$OSX]
		"ypos"		"316" [$OSX]
		"wide"		"80"
		"tall"		"24"
		"autoResize"		"0"
		"pinCorner"		"0"
		"visible"		"1"
		"enabled"		"1"
		"tabPosition"		"16"
		"labelText"		"#GameUI_OK"
		"textAlignment"		"west"
		"dulltext"		"0"
		"brighttext"		"0"
		"wrap"		"0"
		"Command"		"OK"
		"Default"		"1"
		"selected"		"0"
	}
	"Button2"
	{
		"ControlName"		"Button"
		"fieldName"		"Button2"
		"xpos"		"382"
		"ypos"		"408" [!$OSX]
		"ypos"		"316" [$OSX]
		"wide"		"80"
		"tall"		"24"
		"autoResize"		"0"
		"pinCorner"		"0"
		"visible"		"1"
		"enabled"		"1"
		"tabPosition"		"17"
		"labelText"		"#GameUI_Cancel"
		"textAlignment"		"west"
		"dulltext"		"0"
		"brighttext"		"0"
		"wrap"		"0"
		"Command"		"Close"
		"Default"		"0"
		"selected"		"0"
	}
	"Label2"
	{
		"ControlName"		"Label"
		"fieldName"		"Label2"
		"xpos"		"22"
		"ypos"		"360"
		"wide"		"288"
		"tall"		"24"
		"autoResize"		"0"
		"pinCorner"		"0"
		"visible"		"1" [!$POSIX]
		"visible"		"0" [$POSIX]
		"enabled"		"1"
		"tabPosition"		"0"
		"labelText"		"#GameUI_DX_Installed"
		"textAlignment"		"east"
		"dulltext"		"0"
		"brighttext"		"0"
		"wrap"		"0"
	}
	"Label3"
	{
		"ControlName"		"Label"
		"fieldName"		"Label3"
		"xpos"		"22"
		"ypos"		"34"
		"wide"		"112"
		"tall"		"24"
		"autoResize"		"0"
		"pinCorner"		"0"
		"visible"		"1"
		"enabled"		"1"
		"tabPosition"		"0"
		"labelText"		"#GameUI_Model_Detail"
		"textAlignment"		"west"
		"associate"		"ModelDetail"
		"dulltext"		"0"
		"brighttext"		"0"
		"wrap"		"0"
	}
	"TextureDetail"
	{
		"ControlName"		"Label"
		"fieldName"		"TextureDetail"
		"xpos"		"175"
		"ypos"		"34"
		"wide"		"124"
		"tall"		"24"
		"autoResize"		"0"
		"pinCorner"		"0"
		"visible"		"1"
		"enabled"		"1"
		"tabPosition"		"0"
		"labelText"		"#GameUI_Texture_Detail"
		"textAlignment"		"west"
		"associate"		"TextureSlider"
		"dulltext"		"0"
		"brighttext"		"0"
		"wrap"		"0"
	}
	"Label5"
	{
		"ControlName"		"Label"
		"fieldName"		"Label5"
		"xpos"		"22"
		"ypos"		"172"
		"wide"		"156"
		"tall"		"24"
		"autoResize"		"0"
		"pinCorner"		"0"
		"visible"		"1"
		"enabled"		"1"
		"tabPosition"		"0"
		"labelText"		"#GameUI_Antialiasing_Mode"
		"textAlignment"		"west"
		"associate"		"AntialiasingMode"
		"dulltext"		"0"
		"brighttext"		"0"
		"wrap"		"0"
	}
	"Label6"
	{
		"ControlName"		"Label"
		"fieldName"		"Label6"
		"xpos"		"176"
		"ypos"		"172"
		"wide"		"152"
		"tall"		"24"
		"autoResize"		"0"
		"pinCorner"		"0"
		"visible"		"1"
		"enabled"		"1"
		"tabPosition"		"0"
		"labelText"		"#GameUI_Filtering_Mode"
		"textAlignment"		"west"
		"associate"		"FilteringMode"
		"dulltext"		"0"
		"brighttext"		"0"
		"wrap"		"0"
	}
	"dxinstalledlabel"
	{
		"ControlName"		"Label"
		"fieldName"		"dxinstalledlabel"
		"xpos"		"333"
		"ypos"		"360"
		"wide"		"130"
		"tall"		"24"
		"autoResize"		"0"
		"pinCorner"		"0"
		"visible"		"1" [!$POSIX]
		"visible"		"0" [$POSIX]
		"enabled"		"1"
		"tabPosition"		"0"
		"labelText"		"DirectX v9.0+"
		"textAlignment"		"west"
		"dulltext"		"0"
		"brighttext"		"0"
		"wrap"		"0"
	}
	"Divider1"
	{
		"ControlName"		"Divider"
		"fieldName"		"Divider1"
		"xpos"		"22"
		"ypos"		"352"
		"wide"		"438"
		"tall"		"2"
		"autoResize"		"0"
		"pinCorner"		"0"
		"visible"		"1" [!$POSIX]
		"visible"		"0" [$POSIX]
		"enabled"		"1"
		"tabPosition"		"0"
	}
	"Label7"
	{
		"ControlName"		"Label"
		"fieldName"		"Label7"
		"xpos"		"22"
		"ypos"		"94"
		"wide"		"132"
		"tall"		"24"
		"autoResize"		"0"
		"pinCorner"		"0"
		"visible"		"1"
		"enabled"		"1"
		"tabPosition"		"0"
		"labelText"		"#GameUI_Water_Detail"
		"textAlignment"		"west"
		"associate"		"WaterDetail"
		"dulltext"		"0"
		"brighttext"		"0"
		"wrap"		"0"
	}
	"Label8"
	{
		"ControlName"		"Label"
		"fieldName"		"Label8"
		"xpos"		"176"
		"ypos"		"94"
		"wide"		"132"
		"tall"		"24"
		"autoResize"		"0"
		"pinCorner"		"0"
		"visible"		"1"
		"enabled"		"1"
		"tabPosition"		"0"
		"labelText"		"#GameUI_Shadow_Detail"
		"textAlignment"		"west"
		"associate"		"ShadowDetail"
		"dulltext"		"0"
		"brighttext"		"0"
		"wrap"		"0"
	}
	"Label12"
	{
		"ControlName"		"Label"
		"fieldName"		"Label8"
		"xpos"		"330"
		"ypos"		"94"
		"wide"		"132"
		"tall"		"24"
		"autoResize"		"0"
		"pinCorner"		"0"
		"visible"		"1"
		"enabled"		"1"
		"tabPosition"		"0"
		"labelText"		"#GameUI_Color_Correction"
		"textAlignment"		"west"
		"associate"		"ColorCorrection"
		"dulltext"		"0"
		"brighttext"		"0"
		"wrap"		"0"
	}
	"Label10"
	{
		"ControlName"		"Label"
		"fieldName"		"Label10"
		"xpos"		"330"
		"ypos"		"172"
		"wide"		"154"
		"tall"		"24"
		"autoResize"		"0"
		"pinCorner"		"0"
		"visible"		"1"
		"enabled"		"1"
		"tabPosition"		"0"
		"labelText"		"#GameUI_Wait_For_VSync"
		"textAlignment"		"west"
		"associate"		"VSync"
		"dulltext"		"0"
		"brighttext"		"0"
		"wrap"		"0"
	}
	"Label9"
	{
		"ControlName"		"Label"
		"fieldName"		"Label9"
		"xpos"		"330"
		"ypos"		"34"
		"wide"		"132"
		"tall"		"24"
		"autoResize"		"0"
		"pinCorner"		"0"
		"visible"		"1"
		"enabled"		"1"
		"tabPosition"		"0"
		"labelText"		"#GameUI_Shader_Detail"
		"textAlignment"		"west"
		"associate"		"ShaderDetail"
		"dulltext"		"0"
		"brighttext"		"0"
		"wrap"		"0"
	}
	"Label11"
	{
		"ControlName"		"Label"
		"fieldName"		"Label11"
		"xpos"		"18"
		"ypos"		"382" [!$OSX]
		"ypos"		"310" [$OSX]
		"wide"		"280"
		"tall"		"24"
		"autoResize"		"0"
		"pinCorner"		"0"
		"visible"		"1"
		"enabled"		"1"
		"tabPosition"		"0"
		"labelText"		"#GameUI_RecommendedSettings"
		"textAlignment"		"west"
		"dulltext"		"0"
		"brighttext"		"0"
		"Font"		"DefaultSmall"
		"wrap"		"0"
	}
	"HDRLabel"
	{
		"ControlName"		"Label"
		"fieldName"		"HDRLabel"
		"xpos"		"22"
		"ypos"		"292"
		"wide"		"138"
		"tall"		"24"
		"autoResize"		"0"
		"pinCorner"		"0"
		"visible"		"1" [!$OSX]
		"visible"		"0" [$OSX]
		"enabled"		"1"
		"tabPosition"		"0"
		"labelText"		"#GameUI_HDR"
		"textAlignment"		"west"
		"associate"		"Bloom"
		"dulltext"		"0"
		"brighttext"		"0"
		"wrap"		"0"
	}
	"Divider2"
	{
		"ControlName"		"Divider"
		"fieldName"		"Divider2"
		"xpos"		"22"
		"ypos"		"160"
		"wide"		"438"
		"tall"		"2"
		"autoResize"		"0"
		"pinCorner"		"0"
		"visible"		"1"
		"enabled"		"1"
		"tabPosition"		"0"
	}
	"BuildModeDialog"
	{
		"ControlName"		"BuildModeDialog"
		"fieldName"		"BuildModeDialog"
		"xpos"		"321"
		"ypos"		"648"
		"wide"		"300"
		"tall"		"420"
		"autoResize"		"0"
		"pinCorner"		"0"
		"visible"		"1"
		"enabled"		"1"
		"tabPosition"		"0"
		"settitlebarvisible"		"1"
		"title"		"#Frame_Untitled"
	}
	"FovSlider"
	{
		"ControlName"		"CCvarSlider"
		"fieldName"		"FovSlider"
		"xpos"		"176"
		"ypos"		"252"
		"wide"		"140"
		"tall"		"50"
		"autoResize"		"0"
		"pinCorner"		"0"
		"visible"		"1"
		"enabled"		"1"
		"tabPosition"		"11"
		"leftText"		"90"
		"rightText"		"130"
		"minvalue"		"90"
		"maxvalue"		"130"
		"cvar_name"		"fov_desired"
		"allowoutofrange"		"1"
	}
	"FOVLabel"
	{
		"ControlName"		"Label"
		"fieldName"		"FOVLabel"
		"xpos"		"176"
		"ypos"		"232"
		"wide"		"168"
		"tall"		"24"
		"autoResize"		"0"
		"pinCorner"		"0"
		"visible"		"1"
		"enabled"		"1"
		"tabPosition"		"0"
		"labelText"		"#GameUI_FOV"
		"textAlignment"		"west"
		"dulltext"		"0"
		"brighttext"		"0"
		"wrap"		"0"
	}
	"MulticoreLabel"
	{
		"ControlName"		"Label"
		"fieldName"		"MulticoreLabel"
		"xpos"		"330"
		"ypos"		"232"
		"wide"		"168"
		"tall"		"24"
		"autoResize"		"0"
		"pinCorner"		"0"
		"visible"		"1"
		"enabled"		"1"
		"tabPosition"		"0"
		"labelText"		"#GameUI_MulticoreRendering"
		"textAlignment"		"west"
		"dulltext"		"0"
		"brighttext"		"0"
		"wrap"		"0"
	}
	"Multicore"
	{
		"ControlName"		"ComboBox"
		"fieldName"		"Multicore"
		"xpos"		"330"
		"ypos"		"258"
		"wide"		"132"
		"tall"		"24"
		"autoResize"		"0"
		"pinCorner"		"0"
		"visible"		"1"
		"enabled"		"1"
		"tabPosition"		"10"
		"textHidden"		"0"
		"editable"		"0"
		"maxchars"		"-1"
		"NumericInputOnly"		"0"
		"unicode"		"0"
	}
}
