"Resource\OptionsSubVideo.res"
{
	"GammaButton"
	{
		"ControlName"		"Button"
		"fieldName"		"GammaButton"
		"xpos"		"254"
		"ypos"		"126"
		"wide"		"182"
		"tall"		"24"
		"autoResize"		"0"
		"pinCorner"		"0"
		"visible"		"1"
		"enabled"		"0"
		"tabPosition"		"4"
		"labelText"		"#GameUI_AdjustGamma"
		"textAlignment"		"west"
		"dulltext"		"0"
		"brighttext"		"0"
		"wrap"		"0"
		"Default"		"0"
	}
	"Resolution"
	{
		"ControlName"		"ComboBox"
		"fieldName"		"Resolution"
		"xpos"		"36"
		"ypos"		"50"
		"wide"		"160"
		"tall"		"24"
		"autoResize"		"0"
		"pinCorner"		"0"
		"visible"		"1"
		"enabled"		"1"
		"tabPosition"		"1"
		"textHidden"		"0"
		"editable"		"0"
		"maxchars"		"-1"
		"NumericInputOnly"		"0"
		"unicode"		"0"
	}
	"AspectRatio"
	{
		"ControlName"		"ComboBox"
		"fieldName"		"AspectRatio"
		"xpos"		"36"
		"ypos"		"126"
		"wide"		"160"
		"tall"		"24"
		"autoResize"		"0"
		"pinCorner"		"0"
		"visible"		"1"
		"enabled"		"1"
		"tabPosition"		"3"
		"textHidden"		"0"
		"editable"		"0"
		"maxchars"		"-1"
		"NumericInputOnly"		"0"
		"unicode"		"0"
	}
	"AdvancedButton"
	{
		"ControlName"		"Button"
		"fieldName"		"AdvancedButton"
		"xpos"		"254"
		"ypos"		"196"
		"wide"		"182"
		"tall"		"24"
		"autoResize"		"0"
		"pinCorner"		"0"
		"visible"		"1"
		"enabled"		"1"
		"tabPosition"		"5"
		"labelText"		"#GameUI_AdvancedEllipsis"
		"textAlignment"		"west"
		"dulltext"		"0"
		"brighttext"		"0"
		"wrap"		"0"
		"Default"		"0"
	}
	"BenchmarkButton"
	{
		"ControlName"		"Button"
		"fieldName"		"BenchmarkButton"
		"xpos"		"39"
		"ypos"		"230"
		"wide"		"130"
		"tall"		"24"
		"autoResize"		"0"
		"pinCorner"		"0"
		"visible"		"0"
		"enabled"		"1"
		"tabPosition"		"0"
		"labelText"		"#GameUI_LaunchBenchmarkVideoPanel"
		"textAlignment"		"west"
		"dulltext"		"0"
		"brighttext"		"0"
		"wrap"		"0"
		"Default"		"0"
	}
	"DisplayModeCombo"
	{
		"ControlName"		"ComboBox"
		"fieldName"		"DisplayModeCombo"
		"xpos"		"254"
		"ypos"		"50"
		"wide"		"182"
		"tall"		"24"
		"autoResize"		"0"
		"pinCorner"		"0"
		"visible"		"1"
		"enabled"		"1"
		"tabPosition"		"2"
		"textHidden"		"0"
		"editable"		"0"
		"maxchars"		"-1"
		"NumericInputOnly"		"0"
		"unicode"		"0"
	}
	"Gamma label"
	{
		"ControlName"		"Label"
		"fieldName"		"Gamma label"
		"xpos"		"257"
		"ypos"		"117"
		"wide"		"140"
		"tall"		"24"
		"autoResize"		"0"
		"pinCorner"		"0"
		"visible"		"0"
		"enabled"		"1"
		"tabPosition"		"0"
		"labelText"		"#GameUI_Gamma"
		"textAlignment"		"west"
		"dulltext"		"0"
		"brighttext"		"0"
		"wrap"		"0"
	}
	"Renderer"
	{
		"ControlName"		"ComboBox"
		"fieldName"		"Renderer"
		"xpos"		"40"
		"ypos"		"52"
		"wide"		"160"
		"tall"		"24"
		"autoResize"		"0"
		"pinCorner"		"0"
		"visible"		"0"
		"enabled"		"1"
		"tabPosition"		"1"
		"textHidden"		"0"
		"editable"		"0"
		"maxchars"		"-1"
		"NumericInputOnly"		"0"
		"unicode"		"0"
	}
	"Label1"
	{
		"ControlName"		"Label"
		"fieldName"		"Label1"
		"xpos"		"36"
		"ypos"		"24"
		"wide"		"160"
		"tall"		"24"
		"autoResize"		"0"
		"pinCorner"		"0"
		"visible"		"1"
		"enabled"		"1"
		"tabPosition"		"0"
		"labelText"		"#GameUI_Resolution"
		"textAlignment"		"west"
		"associate"		"Resolution"
		"dulltext"		"0"
		"brighttext"		"0"
		"wrap"		"0"
	}
	"Label2"
	{
		"ControlName"		"Label"
		"fieldName"		"Label2"
		"xpos"		"40"
		"ypos"		"28"
		"wide"		"160"
		"tall"		"24"
		"autoResize"		"0"
		"pinCorner"		"0"
		"visible"		"0"
		"enabled"		"1"
		"tabPosition"		"0"
		"labelText"		"#GameUI_Renderer"
		"textAlignment"		"west"
		"dulltext"		"0"
		"brighttext"		"0"
		"wrap"		"0"
	}
	"Label4"
	{
		"ControlName"		"Label"
		"fieldName"		"Label4"
		"xpos"		"254"
		"ypos"		"24"
		"wide"		"160"
		"tall"		"24"
		"autoResize"		"0"
		"pinCorner"		"0"
		"visible"		"1"
		"enabled"		"1"
		"tabPosition"		"0"
		"labelText"		"#GameUI_DisplayMode"
		"textAlignment"		"west"
		"associate"		"DisplayModeCombo"
		"dulltext"		"0"
		"brighttext"		"0"
		"wrap"		"0"
	}
	"AspectRatioLabel"
	{
		"ControlName"		"Label"
		"fieldName"		"AspectRatioLabel"
		"xpos"		"36"
		"ypos"		"100"
		"wide"		"160"
		"tall"		"24"
		"autoResize"		"0"
		"pinCorner"		"0"
		"visible"		"1"
		"enabled"		"1"
		"tabPosition"		"0"
		"labelText"		"#GameUI_AspectRatio"
		"textAlignment"		"west"
		"associate"		"AspectRatio"
		"dulltext"		"0"
		"brighttext"		"0"
		"wrap"		"0"
	}
	"HDContentButton"
	{
		"ControlName"		"CheckButton"
		"fieldName"		"HDContentButton"
		"xpos"		"29"
		"ypos"		"240"
		"wide"		"250"
		"tall"		"24"
		"autoResize"		"0"
		"pinCorner"		"0"
		"RoundedCorners"		"15"
		"pin_corner_to_sibling"		"0"
		"pin_to_sibling_corner"		"0"
		"visible"		"0"
		"enabled"		"1"
		"tabPosition"		"0"
		"labelText"		"#GameUI_HDContent"
		"textAlignment"		"west"
		"dulltext"		"0"
		"brighttext"		"0"
		"wrap"		"0"
		"centerwrap"		"0"
		"textinsetx"		"6"
		"textinsety"		"0"
		"auto_wide_tocontents"		"0"
		"use_proportional_insets"		"0"
		"Default"		"0"
	}
}
