"Resource\OptionsSubMouse.res"
{
	"ReverseMouse"
	{
		"ControlName"		"CCvarNegateCheckButton"
		"fieldName"		"ReverseMouse"
		"xpos"		"28"
		"ypos"		"9"
		"tooltiptext"		"#GameUI_ReverseMouseLabel"
		"wide"		"150"
		"tall"		"28"
		"autoResize"		"0"
		"pinCorner"		"0"
		"RoundedCorners"		"15"
		"pin_corner_to_sibling"		"0"
		"pin_to_sibling_corner"		"0"
		"visible"		"1"
		"enabled"		"1"
		"tabPosition"		"1"
		"labelText"		"#GameUI_ReverseMouse"
		"textAlignment"		"west"
		"dulltext"		"0"
		"brighttext"		"0"
		"wrap"		"0"
		"centerwrap"		"0"
		"textinsetx"		"6"
		"textinsety"		"0"
		"auto_wide_tocontents"		"0"
		"use_proportional_insets"		"0"
		"Default"		"0"
	}
	"MouseFilter"
	{
		"ControlName"		"CCvarToggleCheckButton"
		"fieldName"		"MouseFilter"
		"xpos"		"200"
		"ypos"		"10"
		"tooltiptext"		"#GameUI_MouseFilterLabel"
		"wide"		"150"
		"tall"		"28"
		"autoResize"		"0"
		"pinCorner"		"0"
		"RoundedCorners"		"15"
		"pin_corner_to_sibling"		"0"
		"pin_to_sibling_corner"		"0"
		"visible"		"1"
		"enabled"		"1"
		"tabPosition"		"2"
		"labelText"		"#GameUI_MouseFilter"
		"textAlignment"		"west"
		"dulltext"		"0"
		"brighttext"		"0"
		"wrap"		"0"
		"centerwrap"		"0"
		"textinsetx"		"6"
		"textinsety"		"0"
		"auto_wide_tocontents"		"0"
		"use_proportional_insets"		"0"
		"Default"		"0"
	}
	"MouseRaw"
	{
		"ControlName"		"CCvarToggleCheckButton"
		"fieldName"		"MouseRaw"
		"xpos"		"30"
		"ypos"		"70"
		"tooltiptext"		"#GameUI_MouseRaw_Hint"
		"wide"		"150"
		"tall"		"24"
		"autoResize"		"0"
		"pinCorner"		"0"
		"RoundedCorners"		"15"
		"pin_corner_to_sibling"		"0"
		"pin_to_sibling_corner"		"0"
		"visible"		"1"
		"enabled"		"1"	[!$OSX]
		"enabled"		"0" [$OSX]
		"tabPosition"		"0"
		"labelText"		"#GameUI_MouseRaw"
		"textAlignment"		"west"
		"dulltext"		"0"
		"brighttext"		"0"
		"wrap"		"0"
		"centerwrap"		"0"
		"textinsetx"		"6"
		"textinsety"		"0"
		"auto_wide_tocontents"		"0"
		"use_proportional_insets"		"0"
		"Default"		"0"
	}
	"Joystick"
	{
		"ControlName"		"CCvarToggleCheckButton"
		"fieldName"		"Joystick"
		"xpos"		"28"
		"ypos"		"148"
		"wide"		"226"
		"tall"		"28"
		"autoResize"		"0"
		"pinCorner"		"0"
		"RoundedCorners"		"15"
		"pin_corner_to_sibling"		"0"
		"pin_to_sibling_corner"		"0"
		"visible"		"1"
		"enabled"		"1"
		"tabPosition"		"5"
		"labelText"		"#GameUI_JoystickLabel"
		"textAlignment"		"west"
		"dulltext"		"0"
		"brighttext"		"0"
		"wrap"		"0"
		"centerwrap"		"0"
		"textinsetx"		"6"
		"textinsety"		"0"
		"auto_wide_tocontents"		"0"
		"use_proportional_insets"		"0"
		"Default"		"0"
	}
	"JoystickSouthpaw"
	{
		"ControlName"		"CCvarToggleCheckButton"
		"fieldName"		"JoystickSouthpaw"
		"xpos"		"62"
		"ypos"		"202"
		"wide"		"296"
		"tall"		"28"
		"autoResize"		"0"
		"pinCorner"		"0"
		"RoundedCorners"		"15"
		"pin_corner_to_sibling"		"0"
		"pin_to_sibling_corner"		"0"
		"visible"		"1"
		"enabled"		"0"
		"tabPosition"		"6"
		"labelText"		"#GameUI_JoystickSouthpaw"
		"textAlignment"		"west"
		"dulltext"		"0"
		"brighttext"		"0"
		"wrap"		"0"
		"centerwrap"		"0"
		"textinsetx"		"6"
		"textinsety"		"0"
		"auto_wide_tocontents"		"0"
		"use_proportional_insets"		"0"
		"Default"		"0"
	}
	"ReverseJoystick"
	{
		"ControlName"		"CCvarToggleCheckButton"
		"fieldName"		"ReverseJoystick"
		"xpos"		"62"
		"ypos"		"176"
		"wide"		"296"
		"tall"		"28"
		"autoResize"		"0"
		"pinCorner"		"0"
		"RoundedCorners"		"15"
		"pin_corner_to_sibling"		"0"
		"pin_to_sibling_corner"		"0"
		"visible"		"1"
		"enabled"		"0"
		"tabPosition"		"1"
		"labelText"		"#GameUI_ReverseJoystick"
		"textAlignment"		"west"
		"dulltext"		"0"
		"brighttext"		"0"
		"wrap"		"0"
		"centerwrap"		"0"
		"textinsetx"		"6"
		"textinsety"		"0"
		"auto_wide_tocontents"		"0"
		"use_proportional_insets"		"0"
		"Default"		"0"
	}
	"HUDQuickInfo"
	{
		"ControlName"		"CCvarToggleCheckButton"
		"fieldName"		"HudQuickInfo"
		"xpos"		"28"
		"ypos"		"167"
		"wide"		"148"
		"tall"		"24"
		"autoResize"		"0"
		"pinCorner"		"0"
		"RoundedCorners"		"15"
		"pin_corner_to_sibling"		"0"
		"pin_to_sibling_corner"		"0"
		"visible"		"0"
		"enabled"		"0"
		"tabPosition"		"4"
		"labelText"		"#GameUI_HudQuickInfo"
		"textAlignment"		"west"
		"dulltext"		"0"
		"brighttext"		"0"
		"wrap"		"0"
		"centerwrap"		"0"
		"textinsetx"		"6"
		"textinsety"		"0"
		"auto_wide_tocontents"		"0"
		"use_proportional_insets"		"0"
		"Default"		"0"
	}
	"Slider"
	{
		"ControlName"		"CCvarSlider"
		"fieldName"		"Slider"
		"xpos"		"200"
		"ypos"		"40"
		"wide"		"200"
		"tall"		"40"
		"autoResize"		"0"
		"pinCorner"		"0"
		"RoundedCorners"		"15"
		"pin_corner_to_sibling"		"0"
		"pin_to_sibling_corner"		"0"
		"visible"		"1"
		"enabled"		"1"
		"tabPosition"		"0"
		"leftText"		"#GameUI_Low"
		"rightText"		"#GameUI_High"
	}
	"SensitivityLabel"
	{
		"ControlName"		"TextEntry"
		"fieldName"		"SensitivityLabel"
		"xpos"		"400"
		"ypos"		"40"
		"wide"		"50"
		"tall"		"24"
		"autoResize"		"0"
		"pinCorner"		"0"
		"RoundedCorners"		"15"
		"pin_corner_to_sibling"		"0"
		"pin_to_sibling_corner"		"0"
		"visible"		"1"
		"enabled"		"1"
		"tabPosition"		"3"
		"textHidden"		"0"
		"editable"		"1"
		"maxchars"		"-1"
		"NumericInputOnly"		"1"
		"unicode"		"0"
	}
	"JoystickYawSlider"
	{
		"ControlName"		"CCvarSlider"
		"fieldName"		"JoystickYawSlider"
		"xpos"		"232"
		"ypos"		"237"
		"wide"		"186"
		"tall"		"40"
		"autoResize"		"0"
		"pinCorner"		"0"
		"RoundedCorners"		"15"
		"pin_corner_to_sibling"		"0"
		"pin_to_sibling_corner"		"0"
		"visible"		"1"
		"enabled"		"0"
		"tabPosition"		"0"
		"leftText"		"#GameUI_Low"
		"rightText"		"#GameUI_High"
	}
	"JoystickYawSensitivityPreLabel"
	{
		"ControlName"		"Label"
		"fieldName"		"JoystickYawSensitivityPreLabel"
		"xpos"		"70"
		"ypos"		"235"
		"wide"		"148"
		"tall"		"24"
		"autoResize"		"0"
		"pinCorner"		"0"
		"RoundedCorners"		"15"
		"pin_corner_to_sibling"		"0"
		"pin_to_sibling_corner"		"0"
		"visible"		"1"
		"enabled"		"0"
		"tabPosition"		"0"
		"labelText"		"#GameUI_JoystickLookSpeedYaw"
		"textAlignment"		"west"
		"associate"		"Slider"
		"dulltext"		"0"
		"brighttext"		"0"
		"wrap"		"0"
		"centerwrap"		"0"
		"textinsetx"		"0"
		"textinsety"		"0"
		"auto_wide_tocontents"		"0"
		"use_proportional_insets"		"0"
	}
	"JoystickPitchSlider"
	{
		"ControlName"		"CCvarSlider"
		"fieldName"		"JoystickPitchSlider"
		"xpos"		"232"
		"ypos"		"274"
		"wide"		"186"
		"tall"		"40"
		"autoResize"		"0"
		"pinCorner"		"0"
		"RoundedCorners"		"15"
		"pin_corner_to_sibling"		"0"
		"pin_to_sibling_corner"		"0"
		"visible"		"1"
		"enabled"		"0"
		"tabPosition"		"0"
		"leftText"		"#GameUI_Low"
		"rightText"		"#GameUI_High"
	}
	"JoystickPitchSensitivityPreLabel"
	{
		"ControlName"		"Label"
		"fieldName"		"JoystickPitchSensitivityPreLabel"
		"xpos"		"70"
		"ypos"		"270"
		"wide"		"148"
		"tall"		"24"
		"autoResize"		"0"
		"pinCorner"		"0"
		"RoundedCorners"		"15"
		"pin_corner_to_sibling"		"0"
		"pin_to_sibling_corner"		"0"
		"visible"		"1"
		"enabled"		"0"
		"tabPosition"		"0"
		"labelText"		"#GameUI_JoystickLookSpeedPitch"
		"textAlignment"		"west"
		"associate"		"Slider"
		"dulltext"		"0"
		"brighttext"		"0"
		"wrap"		"0"
		"centerwrap"		"0"
		"textinsetx"		"0"
		"textinsety"		"0"
		"auto_wide_tocontents"		"0"
		"use_proportional_insets"		"0"
	}
	"JoystickYawSensitivityLabel"
	{
		"ControlName"		"TextEntry"
		"fieldName"		"JoystickYawSensitivityLabel"
		"xpos"		"500"
		"ypos"		"179"
		"wide"		"48"
		"tall"		"24"
		"autoResize"		"0"
		"pinCorner"		"0"
		"RoundedCorners"		"15"
		"pin_corner_to_sibling"		"0"
		"pin_to_sibling_corner"		"0"
		"visible"		"1"
		"enabled"		"1"
		"tabPosition"		"3"
		"textHidden"		"0"
		"editable"		"1"
		"maxchars"		"-1"
		"NumericInputOnly"		"1"
		"unicode"		"0"
	}
	"JoystickPitchSensitivityLabel"
	{
		"ControlName"		"TextEntry"
		"fieldName"		"JoystickPitchSensitivityLabel"
		"xpos"		"555"
		"ypos"		"256"
		"wide"		"48"
		"tall"		"24"
		"autoResize"		"0"
		"pinCorner"		"0"
		"RoundedCorners"		"15"
		"pin_corner_to_sibling"		"0"
		"pin_to_sibling_corner"		"0"
		"visible"		"1"
		"enabled"		"1"
		"tabPosition"		"3"
		"textHidden"		"0"
		"editable"		"1"
		"maxchars"		"-1"
		"NumericInputOnly"		"1"
		"unicode"		"0"
	}
	"Label3"
	{
		"ControlName"		"Label"
		"fieldName"		"Label3"
		"xpos"		"35"
		"ypos"		"40"
		"wide"		"148"
		"tall"		"24"
		"autoResize"		"0"
		"pinCorner"		"0"
		"RoundedCorners"		"15"
		"pin_corner_to_sibling"		"0"
		"pin_to_sibling_corner"		"0"
		"visible"		"1"
		"enabled"		"1"
		"tabPosition"		"0"
		"labelText"		"#GameUI_MouseSensitivity"
		"textAlignment"		"west"
		"associate"		"Slider"
		"dulltext"		"0"
		"brighttext"		"0"
		"wrap"		"0"
		"centerwrap"		"0"
		"textinsetx"		"0"
		"textinsety"		"0"
		"auto_wide_tocontents"		"0"
		"use_proportional_insets"		"0"
	}
	"Label1"
	{
		"ControlName"		"Label"
		"fieldName"		"Label1"
		"xpos"		"182"
		"ypos"		"167"
		"wide"		"301"
		"tall"		"24"
		"autoResize"		"0"
		"pinCorner"		"0"
		"RoundedCorners"		"15"
		"pin_corner_to_sibling"		"0"
		"pin_to_sibling_corner"		"0"
		"visible"		"0"
		"enabled"		"1"
		"tabPosition"		"0"
		"labelText"		"#GameUI_HudQuickInfo_Info"
		"textAlignment"		"west"
		"dulltext"		"0"
		"brighttext"		"0"
		"wrap"		"0"
		"centerwrap"		"0"
		"textinsetx"		"0"
		"textinsety"		"0"
		"auto_wide_tocontents"		"0"
		"use_proportional_insets"		"0"
	}
	"Divider1"
	{
		"ControlName"		"Divider"
		"fieldName"		"Divider1"
		"xpos"		"35"
		"ypos"		"140"
		"wide"		"396"
		"tall"		"2"
		"autoResize"		"0"
		"pinCorner"		"0"
		"RoundedCorners"		"15"
		"pin_corner_to_sibling"		"0"
		"pin_to_sibling_corner"		"0"
		"visible"		"1"
		"enabled"		"1"
		"tabPosition"		"0"
	}
	"BuildModeDialog"
	{
		"ControlName"		"BuildModeDialog"
		"fieldName"		"BuildModeDialog"
		"xpos"		"1081"
		"ypos"		"390"
		"wide"		"300"
		"tall"		"420"
		"autoResize"		"0"
		"pinCorner"		"0"
		"RoundedCorners"		"15"
		"pin_corner_to_sibling"		"0"
		"pin_to_sibling_corner"		"0"
		"visible"		"1"
		"enabled"		"1"
		"tabPosition"		"0"
		"settitlebarvisible"		"1"
		"title"		"#Frame_Untitled"
	}
}
