#base "SourceSchemeBase.res"

Scheme
{
	Colors
	{
		"DesaturatedOrange"			"151 137 126 255"
		"TransparentDesaturatedOrange" "151 137 126 128"
		
		"Gray"					"59 53 50 255"
		"TransparentGray"		"59 53 50 156"

		"DarkGray"				"45 42 40 255"
		"TransparentDarkGray" 	"45 42 40 156"
		
		"TFWhite"			"255 255 255 255"
		"TransparentTFWhite" "255 255 255 156"	
	}
	
	BaseSettings
	{		
		// vgui_controls color specifications
		Frame.BgColor					"DarkGray"
		Frame.OutOfFocusBgColor			"TransparentGray"
		
		CheckButton.TextColor			"TFWhite" // was orange
		CheckButton.SelectedTextColor	"TFWhite" // was orange
		CheckButton.BgColor				"TransparentBlack"
		CheckButton.Border1  			"Border.Dark" 		// the left checkbutton border
		CheckButton.Border2  			"Border.Bright"		// the right checkbutton border
		CheckButton.Check				"TFWhite"			// color of the check itself		
		
		// Server browser
		ListPanel.TextColor					"TFWhite"
		ListPanel.TextBgColor				"Blank"
		ListPanel.BgColor					"TransparentBlack"
		ListPanel.SelectedTextColor			"TFWhite"
		ListPanel.SelectedBgColor			"DesaturatedOrange"
		ListPanel.SelectedOutOfFocusBgColor	"TransparentDesaturatedOrange"
		ListPanel.EmptyListInfoTextColor	"TFWhite"

		// Menu ( not to be confused with MainMenu ) 
		// controlls the dropdowns and similar ( ex. Console Dropdown )
		Menu.TextColor					"TFWhite"
		Menu.BgColor					"Gray"
		Menu.ArmedTextColor				"TFWhite"
		Menu.ArmedBgColor				"DesaturatedOrange"
		Menu.TextInset					"6"
		
		// Rich text is the console text
		// Its seperate from the console WRITING text
		RichText.TextColor				"TFWhite"
		RichText.BgColor				"TransparentGray"
		RichText.SelectedTextColor		"TFWhite"
		RichText.SelectedBgColor		"DesaturatedOrange"
		
		SectionedListPanel.HeaderTextColor	"TFWhite"
		SectionedListPanel.HeaderBgColor	"Blank"
		SectionedListPanel.DividerColor		"TFWhite"
		SectionedListPanel.TextColor		"TFWhite"
		SectionedListPanel.BrightTextColor	"TFWhite"
		SectionedListPanel.BgColor			"TransparentBlack"
		SectionedListPanel.SelectedTextColor			"TFWhite"
		SectionedListPanel.SelectedBgColor				"DesaturatedOrange"
		SectionedListPanel.OutOfFocusSelectedTextColor	"TFWhite"
		SectionedListPanel.OutOfFocusSelectedBgColor	"TransparentDesaturatedOrange"
		
		TextEntry.SelectedBgColor						"TFWhite"
		TextEntry.OutOfFocusSelectedBgColor				"TransparentTFWhite"
		
		Tooltip.TextColor		"TFWhite"
		Tooltip.BgColor			"DarkGray"
		
		NewGame.SelectionColor	"DesaturatedOrange"
		
		// scheme-specific colors
		MainMenu.TextColor			"TFWhite"
		MainMenu.ArmedTextColor		"DesaturatedOrange"
		MainMenu.Inset				"32"		
	}
	
	//////////////////////// FONTS /////////////////////////////
	//
	// describes all the fonts
	Fonts
	{
		// fonts are used in order that they are listed
		// fonts listed later in the order will only be used if they fulfill a range not already filled
		// if a font fails to load then the subsequent fonts will replace
		// fonts are used in order that they are listed
		"DebugFixed"
		{
			"1"
			{
				"name"		"Courier New"
				"tall"		"10"
				"weight"	"500"
				"antialias" "1"
			}
		}
		// fonts are used in order that they are listed
		"DebugFixedSmall"
		{
			"1"
			{
				"name"		"Courier New"
				"tall"		"7"
				"weight"	"500"
				"antialias" "1"
			}
		}
		"DefaultFixedOutline"
		{
			"1"
			{
				"name"		 "Lucida Console"
				"tall"		 "10"
				"tall_lodef" "15"
				"tall_hidef" "20"
				"weight"	 "0"
				"outline"	 "1"
				"antialias" "1"
			}
		}
		"Default"
		{
			"1"
			{
				"name"		"Tahoma"
				"tall"		"16"
				"weight"	"500"
				"antialias" "1"
			}
		}
		"DefaultBold"
		{
			"1"
			{
				"name"		"TF2"
				"tall"		"16"
				"weight"	"100"
				"antialias"	"1"
			}
		}
		"DefaultUnderline"
		{
			"1"
			{
				"name"		"Tahoma"
				"tall"		"16"
				"weight"	"500"
				"underline" "1"
				"antialias" "1"
				
			}
		}
		"DefaultSmall"
		{
			"1"
			{
				"name"		"Tahoma"
				"tall"		"12"
				"weight"	"0"
				"antialias" "1"
			}
		}
		"DefaultSmallDropShadow"
		{
			"1"
			{
				"name"		"Tahoma"
				"tall"		"13"
				"weight"	"0"
				"dropshadow" "1"
				"antialias" "1"
			}
		}
		"DefaultVerySmall"
		{
			"1"
			{
				"name"		"Tahoma"
				"tall"		"12"
				"weight"	"0"
				"antialias" "1"
			}
		}

		"DefaultLarge"
		{
			"1"
			{
				"name"		"Tahoma"
				"tall"		"18"
				"weight"	"0"
				"antialias" "1"
			}
		}
		"UiBold"
		{
			"1"	[$WIN32]
			{
				"name"		"Tahoma"
				"tall"		"24"
				"weight"	"2000"
				"outline"	"1"
				"antialias" "1"
			}
		}
		"ChapterTitle"	[$WIN32]
		{
			"1"
			{
				"name"			"Tahoma"
				"tall"			"20"
				"tall_hidef"	"28"
				"weight"		"2000"
				"outline"		"1"
				"antialias" "1"
			}
		}
		"ChapterTitleBlur"	[$WIN32]
		{
			"1"
			{
				"name"			"Tahoma"
				"tall"			"20"
				"tall_hidef"	"28"
				"weight"		"2000"
				"blur"			"3"
				"blur_hidef"	"5"
				"antialias" "1"
			}
		}
		"MenuLarge"
		{
			"1"	[$X360]
			{
				"name"		"Verdana"
				"tall"		"16"
				"weight"	"600"
				"antialias" "1"
			}
			"1"	[$WIN32]
			{
				"name"		"Verdana"
				"tall"		"20"
				"tall_hidef"		"24"
				"weight"	"1200"
				"antialias" "1"
				"outline" "1"
			}
		}
		"MainMenuButton"
		{
			"1"	[$WIN32]
			{
				"name"		"TF2 Build"
				"tall"		"18"
				"weight"	"500"
				"additive"	"0"
				"antialias" "1"
			}
		}	
		"HudFontMediumBold"
		{
			"1"
			{
				"name"		"TF2 Build"
				"tall"		"24"
				"weight"	"500"
				"additive"	"0"
				"antialias" "1"
			}
		}
		"ServerBrowserSmall"
		{
			"1"
			{
				"name"		"Tahoma"
				"tall"		"16"
				"weight"	"0"
				"range"		"0x0000 0x017F" //	Basic Latin, Latin-1 Supplement, Latin Extended-A
				"yres"	"480 599"
				"antialias"	"1"
			}
			"2"
			{
				"name"		"Tahoma"
				"tall"		"16"
				"weight"	"0"
				"range"		"0x0000 0x017F" //	Basic Latin, Latin-1 Supplement, Latin Extended-A
				"yres"	"600 767"
				"antialias"	"1"
			}
			"3"
			{
				"name"		"Tahoma"
				"tall"		"16"
				"weight"	"0"
				"range"		"0x0000 0x017F" //	Basic Latin, Latin-1 Supplement, Latin Extended-A
				"yres"	"768 1023"
				"antialias"	"1"
			}
			"4"
			{
				"name"		"Tahoma"
				"tall"		"19"
				"weight"	"0"
				"range"		"0x0000 0x017F" //	Basic Latin, Latin-1 Supplement, Latin Extended-A
				"yres"	"1024 1199"
				"antialias"	"1"
			}
			"5"
			{
				"name"		"Tahoma"
				"tall"		"19"
				"weight"	"0"
				"range"		"0x0000 0x017F" //	Basic Latin, Latin-1 Supplement, Latin Extended-A
				"yres"	"1200 6000"
				"antialias"	"1"
			}
		}
		"HudFontMediumBigBold"
		{
			"1"
			{
				"name"		"TF2 Build"
				"tall"		"30"
				"weight"	"500"
				"additive"	"0"
				"antialias" "1"
			}
		}
		"ServerBrowserTitle"
		{
			"1"
			{
				"name"		"TF2 Build"
				"tall"		"35"
				"tall_lodef"	"40"
				"weight"	"500"
				"additive"	"0"
				"antialias" "1"
			}
		}
		GameUIButtons
		{
			"1"	[$WIN32]
			{
				"bitmap"	"1"
				"name"		"Buttons"
				"scalex"	"0.63"
				"scaley"	"0.63"
				"scalex_hidef"	"1.0"
				"scaley_hidef"	"1.0"
				"scalex_lodef"	"0.75"
				"scaley_lodef"	"0.75"
			}
		}
		"ConsoleText"
		{
			"1"
			{
				"name"		"Lucida Console"
				"name"		 "Verdana" [$POSIX]
				"tall"		"12"
				"weight"	"500"
				"antialias"	"1"
			}
		}

		// this is the symbol font
		"Marlett"
		{
			"1"
			{
				"name"		"Marlett"
				"tall"		"14"
				"weight"	"0"
				"symbol"	"1"
				"antialias" "1"
			}
		}

		"Trebuchet24"
		{
			"1"
			{
				"name"		"Trebuchet MS"
				"tall"		"24"
				"weight"	"900"
				"antialias" "1"
			}
		}

		"Trebuchet20"
		{
			"1"
			{
				"name"		"Trebuchet MS"
				"tall"		"20"
				"weight"	"900"
				"antialias" "1"
			}
		}

		"Trebuchet18"
		{
			"1"
			{
				"name"		"Trebuchet MS"
				"tall"		"18"
				"weight"	"900"
				"antialias" "1"
			}
		}

		// HUD numbers
		// We use multiple fonts to 'pulse' them in the HUD, hence the need for many of near size
		"HUDNumber"
		{
			"1"
			{
				"name"		"Trebuchet MS"
				"tall"		"40"
				"weight"	"900"
			}
		}
		"HUDNumber1"
		{
			"1"
			{
				"name"		"Trebuchet MS"
				"tall"		"41"
				"weight"	"900"
			}
		}
		"HUDNumber2"
		{
			"1"
			{
				"name"		"Trebuchet MS"
				"tall"		"42"
				"weight"	"900"
			}
		}
		"HUDNumber3"
		{
			"1"
			{
				"name"		"Trebuchet MS"
				"tall"		"43"
				"weight"	"900"
			}
		}
		"HUDNumber4"
		{
			"1"
			{
				"name"		"Trebuchet MS"
				"tall"		"44"
				"weight"	"900"
			}
		}
		"HUDNumber5"
		{
			"1"
			{
				"name"		"Trebuchet MS"
				"tall"		"45"
				"weight"	"900"
			}
		}
		"DefaultFixed"
		{
			"1"
			{
				"name"		"Lucida Console"
				"tall"		"10"
				"weight"	"0"
				"antialias" "1"
			}
//			"1"
//			{
//				"name"		"FixedSys"
//				"tall"		"20"
//				"weight"	"0"
//			}
		}

		"DefaultFixedDropShadow"
		{
			"1"
			{
				"name"		"Lucida Console"
				"tall"		"10"
				"weight"	"0"
				"dropshadow" "1"
				"antialias" "1"
			}
//			"1"
//			{
//				"name"		"FixedSys"
//				"tall"		"20"
//				"weight"	"0"
//			}
		}

		"CloseCaption_Normal"
		{
			"1"
			{
				"name"		"Tahoma"
				"tall"		"16"
				"weight"	"500"
				"antialias" "1"
			}
		}
		"CloseCaption_Italic"
		{
			"1"
			{
				"name"		"Tahoma"
				"tall"		"16"
				"weight"	"500"
				"italic"	"1"
				"antialias" "1"
			}
		}
		"CloseCaption_Bold"
		{
			"1"
			{
				"name"		"Tahoma"
				"tall"		"16"
				"weight"	"900"
				"antialias" "1"
			}
		}
		"CloseCaption_BoldItalic"
		{
			"1"
			{
				"name"		"Tahoma"
				"tall"		"16"
				"weight"	"900"
				"italic"	"1"
				"antialias" "1"
			}
		}

		TitleFont
		{
			"1"
			{
				"name"		"HalfLife2"
				"tall"		"72"
				"weight"	"400"
				"antialias"	"1"
				"custom"	"1"
			}
		}

		TitleFont2
		{
			"1"
			{
				"name"		"HalfLife2"
				"tall"		"120"
				"weight"	"400"
				"antialias"	"1"
				"custom"	"1"
			}
		}

		AppchooserGameTitleFont	[$WIN32]
		{
			"1"
			{
				"name"			"Trebuchet MS"
				"tall"			"16"
				"tall_hidef"	"24"
				"weight"		"900"
				"antialias"		"1"
			}
		}

		AppchooserGameTitleFontBlur	[$WIN32]
		{
			"1"
			{
				"name"			"Trebuchet MS"
				"tall"			"16"
				"tall_hidef"	"24"
				"weight"		"900"
				"blur"			"3"
				"blur_hidef"	"5"
				"antialias"		"1"
			}
		}
		
		"MainMenuFont"
		{
			"1"
			{
				"name"		"TF2 Build"
				"tall"		"18"
				"weight"	"500"
				"additive"	"0"
				"antialias" "1"
			}
		}
		"MainMenuFontBIG"
		{
			"1"
			{
				"name"		"TF2"
				"tall"		"25"
				"weight"	"500"
				"additive"	"0"
				"antialias" "1"
			}
		}
	}
	
	CustomFontFiles
	{
		"9"
		{
			"font" "resource/TF2Build.ttf"
			"name" "TF2 Build"
			"russian"
			{
				"range" "0x0000 0xFFFF"
			}
		}
	}
}

