// Choreo version 1
actor "civilian"
{
  channel "audio"
  {
    event speak "Civilian.BattleCry05"
    {
      time 0.000000 1.515102
      param "Civilian.BattleCry05"
      fixedlength
      cctype "cc_master"
      cctoken ""
    }
  }
  channel "emotion"
  {
    event expression "madUpper"
    {
      time 0.020833 1.729167
      param "player\civilian\emotion\emotion"
      param2 "madUpper"
      event_ramp
      {
        0.2515 0.2543
        0.4334 0.8458 "curve_easein_to_curve_easeout"
        1.2939 0.8457 "curve_easein_to_curve_easeout"
        1.4400 0.7571 "curve_catmullrom_normalize_x_to_curve_catmullrom_normalize_x"
        1.5818 0.1486
      }
    }
  }
}

scalesettings
{
  "CChoreoView" "64"
  "ExpressionTool" "100"
  "RampTool" "66"
  "GestureTool" "100"
  "SceneRampTool" "100"
}
fps 60
snap off
ignorePhonemes off
