// Choreo version 1
actor "civilian"
{
  channel "audio"
  {
    event speak "Civilian.HelpMeDefend01"
    {
      time 0.000000 1.578957
      param "Civilian.HelpMeDefend01"
      fixedlength
      cctype "cc_master"
      cctoken ""
    }
  }
  channel "emotion"
  {
    event expression "madUpper"
    {
      time 0.000000 1.735207
      param "player\civilian\emotion\emotion"
      param2 "madUpper"
      event_ramp
      {
        0.2500 0.6743 "curve_easein_to_curve_easeout"
        1.3807 0.6714 "curve_easein_to_curve_easeout"
      }
    }
  }
}

scalesettings
{
  "CChoreoView" "64"
  "ExpressionTool" "100"
  "RampTool" "66"
  "GestureTool" "100"
  "SceneRampTool" "100"
}
fps 60
snap off
ignorePhonemes off
