// Choreo version 1
actor "civilian"
{
  channel "audio"
  {
    event speak "Civilian.Incoming01"
    {
      time 0.010417 0.982753
      param "Civilian.Incoming01"
      fixedlength
      cctype "cc_master"
      cctoken ""
    }
  }
  channel "emotion"
  {
    event expression "madUpper"
    {
      time 0.010417 1.128585
      param "player\civilian\emotion\emotion"
      param2 "madUpper"
      event_ramp
      {
        0.2530 0.7343 "curve_catmullrom_normalize_x_to_curve_catmullrom_normalize_x"
        0.9000 0.7371 "curve_catmullrom_normalize_x_to_curve_catmullrom_normalize_x"
      }
    }
  }
}

scalesettings
{
  "CChoreoView" "64"
  "ExpressionTool" "100"
  "RampTool" "66"
  "GestureTool" "100"
  "SceneRampTool" "100"
}
fps 60
snap off
ignorePhonemes off
