// Choreo version 1
actor "civilian"
{
  channel "audio"
  {
    event speak "Civilian.LaughHappy02"
    {
      time 0.000000 1.224853
      param "Civilian.LaughHappy02"
      fixedlength
      cctype "cc_master"
      cctoken ""
    }
  }
  channel "emotion"
  {
    event expression "happySmall"
    {
      time 0.974853 1.922770
      param "player\civilian\emotion\emotion"
      param2 "happySmall"
      event_ramp
      {
        0.5000 1.0000 "curve_easein_to_curve_easeout"
        0.7269 1.0000 "curve_easein_to_curve_easeout"
      }
    }
    event expression "happySmallUpper"
    {
      time 0.000000 1.474853
      param "player\civilian\emotion\emotion"
      param2 "happySmallUpper"
      event_ramp
      {
        0.2500 1.0000 "curve_easein_to_curve_easeout"
        0.9749 1.0000 "curve_easein_to_curve_easeout"
      }
    }
  }
}

scalesettings
{
  "CChoreoView" "64"
  "ExpressionTool" "100"
  "RampTool" "66"
  "GestureTool" "100"
  "SceneRampTool" "100"
}
fps 60
snap off
ignorePhonemes off
