// Choreo version 1
actor "civilian"
{
  channel "audio"
  {
    event speak "Civilian.LaughShort01"
    {
      time 0.000000 1.152290
      param "Civilian.LaughShort01"
      fixedlength
      cctype "cc_master"
      cctoken ""
    }
  }
  channel "emotion"
  {
    event expression "happySmallUpper"
    {
      time 0.000000 1.371040
      param "player\civilian\emotion\emotion"
      param2 "happySmallUpper"
      event_ramp
      {
        0.2500 1.0000 "curve_easein_to_curve_easeout"
        0.8710 1.0000 "curve_easein_to_curve_easeout"
      }
    }
  }
}

scalesettings
{
  "CChoreoView" "64"
  "ExpressionTool" "100"
  "RampTool" "66"
  "GestureTool" "100"
  "SceneRampTool" "100"
}
fps 60
snap off
ignorePhonemes off
