// Choreo version 1
actor "civilian"
{
  channel "audio"
  {
    event speak "Civilian.PainSevere02"
    {
      time 0.000000 1.338050
      param "Civilian.PainSevere02"
      fixedlength
      cctype "cc_master"
      cctoken ""
    }
  }
  channel "emotion"
  {
    event expression "painSmall"
    {
      time 1.088050 2.744300
      param "player\civilian\emotion\emotion"
      param2 "painSmall"
      event_ramp
      {
        0.5000 1.0000 "curve_easein_to_curve_easeout"
        1.4242 0.8457
      }
    }
    event expression "painSmallUpper"
    {
      time 0.000000 1.588050
      param "player\civilian\emotion\emotion"
      param2 "painSmallUpper"
      event_ramp
      {
        0.2500 1.0000 "curve_easein_to_curve_easeout"
        1.0881 1.0000 "curve_easein_to_curve_easeout"
      }
    }
  }
}

scalesettings
{
  "CChoreoView" "64"
  "ExpressionTool" "100"
  "RampTool" "66"
  "GestureTool" "100"
  "SceneRampTool" "100"
}
fps 60
snap off
ignorePhonemes off
