// Choreo version 1
actor "civilian"
{
  channel "audio"
  {
    event speak "Civilian.SentryAhead03"
    {
      time 0.000000 0.803991
      param "Civilian.SentryAhead03"
      fixedlength
      cctype "cc_master"
      cctoken ""
    }
  }
  channel "emotion"
  {
    event expression "madUpper"
    {
      time 0.000000 0.918574
      param "player\civilian\emotion\emotion"
      param2 "madUpper"
      event_ramp
      {
        0.1742 0.7257 "curve_catmullrom_normalize_x_to_curve_catmullrom_normalize_x"
        0.7186 0.7343 "curve_catmullrom_normalize_x_to_curve_catmullrom_normalize_x"
      }
    }
  }
}

scalesettings
{
  "CChoreoView" "64"
  "ExpressionTool" "100"
  "RampTool" "66"
  "GestureTool" "100"
  "SceneRampTool" "100"
}
fps 60
snap off
ignorePhonemes off
