// Choreo version 1
actor "civilian"
{
  channel "audio"
  {
    event speak "Civilian.SentryAhead01"
    {
      time 0.000000 1.033288
      param "Civilian.SentryAhead01"
      fixedlength
      cctype "cc_master"
      cctoken ""
    }
  }
  channel "emotion"
  {
    event expression "madUpper"
    {
      time 0.000000 1.106205
      param "player\civilian\emotion\emotion"
      param2 "madUpper"
      event_ramp
      {
        0.2500 0.7086 "curve_easein_to_curve_easeout"
        0.8274 0.7086 "curve_easein_to_curve_easeout"
      }
    }
  }
}

scalesettings
{
  "CChoreoView" "64"
  "ExpressionTool" "100"
  "RampTool" "66"
  "GestureTool" "100"
  "SceneRampTool" "100"
}
fps 60
snap off
ignorePhonemes off
