// Choreo version 1
actor "civilian"
{
  channel "audio"
  {
    event speak "Civilian.Taunts10"
    {
      time 0.000000 3.065034
      param "Civilian.Taunts10"
      fixedlength
      cctype "cc_master"
      cctoken ""
    }
  }
  channel "emotion"
  {
    event expression "madUpper"
    {
      time 0.000000 3.262951
      param "player\civilian\emotion\emotion"
      param2 "madUpper"
      event_ramp
      {
        0.2500 0.8400 "curve_easein_to_curve_easeout"
        0.9545 0.8400 "curve_easein_to_curve_easeout"
        1.3424 0.4571
        1.6364 0.8371 "curve_easein_to_curve_easeout"
        2.9145 0.8371 "curve_easein_to_curve_easeout"
      }
    }
  }
}

scalesettings
{
  "CChoreoView" "64"
  "ExpressionTool" "100"
  "RampTool" "66"
  "GestureTool" "100"
  "SceneRampTool" "100"
}
fps 60
snap off
ignorePhonemes off
