"sky"
{
	"$hdrcompressedTexture" "skybox/sky_hydro_01_hdrlf"	
	"$nofog" "1"
	"$ignorez" "1"
	"$basetexture" "skybox/sky_hydro_01lf"
	"$basetexturetransform" "center 0 0 scale 1 2 rotate 0 translate 0 0"
	"%keywords" "tf"
}
