"VertexLitGeneric"
{
	"$basetexture" "Models/props_spytech/crossfire_screen_02"
                "$selfillum" 1
                "$selfillummask" "Models/props_spytech/crossfire_screen_selfillum"
	"$nodecal" "1"
}


