"VertexLitGeneric"
{
	"$basetexture" "models/props_spytech/grey_bell"
	"$phong" "1"
	"$phongexponent" "21"
	"$phongboost" "1"	
//	"$lightwarptexture" "models/player/pyro/pyro_lightwarp"
	"$phongfresnelranges"	"[2 1 .8]"
	"$halflambert" "0"
	"$bumpmap" "Models/effects/flat_normal"
}
