"vertexlitgeneric"
{
	"$basetexture" "wood/wood_bridge002"
	"$surfaceprop" "wood"
	"%keywords" "tf"
	"$detail" "overlays/detail006"
	"$detailscale" "1"
	"$detailblendmode" "0"
	"$detailblendfactor" "1"
}
