"LightmappedGeneric" {
	"$basetexture" "Concrete/computerwall_of001e"
	"%keywords" "tf"
	"$detail" "overlays/detail001"
	"$detailscale" "1.9"
	"$detailblendmode" "0"
	"$detailblendfactor" "1"
}
