"LightMappedGeneric"
{
	"$basetexture"	"Concrete/concretewall011c_01"
	"%keywords" "tf"
	"$detail" "overlays/detail001"
	"$detailscale" "1.9"
	"$detailblendmode" "0"
	"$detailblendfactor" "1"
}