"LightmappedGeneric" {
	"$baseTexture" "concrete/concretewall_databank_trim003"

	"$detail" "overlays/detail001"
	"$detailscale" "1.9"
	"$detailblendmode" "0"
	"$detailblendfactor" "1"

	"$surfaceprop" "concrete"
	"%keywords" "tf"
}