"LightmappedGeneric" {
	"$baseTexture" "Concrete/concretewall002_of001c"
	"$bumpmap" "Concrete/concretewall002_bump-ssbump"
	"$ssbump" "1"
	"%keywords" "tf"
	"$detail" "overlays/detail001"
	"$detailscale" "1.9"
	"$detailblendmode" "0"
	"$detailblendfactor" "1"
}
