"LightmappedGeneric"
{
	"$baseTexture" "Concrete/concretewall_dock001a"
	"%keywords" "tf"
	"$detail" "overlays/detail001"
	"$detailscale" "1.9"
	"$detailblendmode" "0"
	"$detailblendfactor" "1"
}
