"VertexlitGeneric"
{
	"$basetexture" "models/props_london/london_railing_generic"
	"%keywords" ""tf""
	
	"$model" "1"
	"$halflambert" "1"
	
	"$phong" "1"
	  "$phongexponent" "5"
	  "$phongboost" "0.1"
	  "$lightwarptexture" "models\lightwarps\weapon_lightwarp"
	  "$phongfresnelranges" "[.55 .5 1]"
}
