"VertexLitGeneric"
{
	"$basetexture" "models/props_london/london_taxi_001b"
	"$basemapalphaphongmask" "1"
	"$phong" "1"
	"$phongexponent" "15"
	"$phongboost" ".1"	
	"$phongfresnelranges"	"[.7 15 20]"

	"$envmap" "cubemaps/cubemap_sheen001"
	"$envmaptint" "[.1 .1 .1]"
	"$normalmapalphaenvmapmask" "1"
}
