"VertexLitGeneric"
{
	"$basetexture" "models/props_london/london_phonebox_001b"
	"$basemapalphaphongmask" "1"
	"$phong" "1"
	"$phongexponent" "15"
	"$phongboost" ".10"	
	"$phongfresnelranges"	"[.7 15 20]"
}
