"VertexLitGeneric"
{
	"$basetexture" "models/props_london/london_bus_001"
	"$basemapalphaphongmask" "1"
	"$phong" "1"
	"$phongexponent" "15"
	"$phongboost" ".25"	
	"$phongfresnelranges"	"[.7 15 20]"
}
