"VertexLitGeneric"
{
	"$basetexture" "models/props_mecha/computer_wall05g"
	"$selfillum" 	1
	"$nodecal" "1"

	// Use separate self-illum mask on Pre DX9 hardware
	">=DX90"
	{
		"$baseTexture" 		"models/props_mecha/computer_wall05g"
		"$selfillummask" 	"models/props_spytech/computer_wall05_selfillum"
	}

	// Use redundant self-illum in base alpha on Pre DX9 hardware
	"<DX90"
	{
		"$baseTexture" 	"models/props_mecha/computer_wall05g"
	}
}
