"VertexLitGeneric"
{
	"$basetexture" "Models/props_mecha/office_chair_01"
	"$bumpmap" "Models/props_mecha/office_chair_01_norm"


	"$rimlight" "1"		
	"$rimlightexponent" "1"				
	"$rimlightboost" "1.5"
	
	// Cloaking
	"$cloakPassEnabled" "1"

}

