"Resource/UI/HudObjectiveTimePanel.res"
{	
	"ObjectiveStatusTimePanel"
	{
		"ControlName"		"EditablePanel"
		"fieldName"			"ObjectiveStatusTimePanel"
		"xpos"				"c-55"
		"xpos_hidef"		"c-150"
		"xpos_lodef"		"c-150"
		"ypos"				"0"
		"ypos_minmode"		"-14"
		"zpos"				"1"
		"wide"				"110"
		"wide_hidef"		"300"
		"wide_lodef"		"300"
		"tall"				"150"
		"visible"			"1"
		"enabled"			"1"
		"delta_item_x"			"22"
		"delta_item_start_y"	"50"
		"delta_item_end_y"		"70"
		"PositiveColor"			"0 255 0 255"
		"NegativeColor"			"255 0 0 255"
		"delta_lifetime"		"1.5"
		"delta_item_font"		"HudFontMedium"
	}	
	"TimePanelBG"
	{
		"ControlName"		"CTFImagePanel"
		"fieldName"		"TimePanelBG"
		"xpos"			"16"
		"xpos_minmode"	"30"
		"xpos_hidef"	"103"
		"xpos_lodef"	"103"
		"ypos"			"-35"
		"zpos"			"2"
		"wide"			"78"
		"wide_minmode"	"48"
		"wide_lodef"	"100"
		"tall"			"78"
		"tall_minmode"	"23"
		"tall_lodef"	"38"
		"visible"		"1"
		"enabled"		"1"
        "image"			"../hud/objectives_timepanel_red_bg"	
		"scaleImage"		"1"		
		"teambg_2"		"../hud/objectives_timepanel_red_bg"
		"teambg_3"		"../hud/objectives_timepanel_blue_bg"		
		"teambg_4"		"../hud/objectives_timepanel_custom_bg"		
	}	
	"TimePanelValue"
	{
		"ControlName"		"CExLabel"
		"fieldName"		"TimePanelValue"
		"font"			"HudFontMediumSmall"
		"font_minmode"	"HudFontSmall"
		"font_lodef"	"HudFontMedium"
		"fgcolor"		"TanLight"
		"xpos"			"23"
		"xpos_minmode"	"39"
		"xpos_hidef"	"114"
		"xpos_lodef"	"114"
		"ypos"			"4"
		"ypos_minmode"	"4"
		"ypos_hidef"	"15"
		"ypos_lodef"	"18"
		"zpos"			"3"
		"wide"			"45"
		"wide_minmode"	"30"
		"wide_lodef"	"50"
		"tall"			"31"
		"visible"		"1"
		"enabled"		"1"
		"textAlignment"		"center"
	}	
	"TimePanelProgressBar"
	{
		"ControlName"			"CTFProgressBar"
		"fieldName"			"TimePanelProgressBar"
		"xpos"				"66"
		"xpos_hidef"		"159"
		"xpos_lodef"		"165"
		"ypos"				"9"
		"ypos_hidef"		"15"
		"ypos_lodef"		"16"
		"zpos"				"4"	
		"wide"				"20"
		"wide_lodef"		"25"
		"tall"				"20"
		"tall_lodef"		"25"	
		"visible"			"1"
		"visible_minmode"	"0"
		"enabled"			"1"
		"scaleImage"			"1"
		"image"				"../hud/objectives_timepanel_progressbar"
		"color_active"			"TimerProgress.Active"
		"color_inactive"		"TimerProgress.InActive"
		"color_warning"			"TimerProgress.Warning"
		"percent_warning"		"0.75"
	}
	"WaitingForPlayersLabel"
	{
		"ControlName"		"CExLabel"
		"fieldName"		"WaitingForPlayersLabel"
		"xpos"			"16"
		"xpos_hidef"	"0"
		"xpos_lodef"	"0"
		"ypos"			"-6"
		"ypos_minmode"	"24"
		"ypos_hidef"	"41"
		"ypos_lodef"	"41"
		"zpos"			"7"
		"wide"			"78"
		"wide_hidef"	"300"
		"wide_lodef"	"300"
		"tall"			"19"
		"tall_hidef"	"19"
		"tall_lodef"	"22"
		"visible"		"0"
		"enabled"		"1"
		"labelText"		"#game_WaitingForPlayers"
		"textAlignment"		"center"
		"dulltext"		"0"
		"brighttext"		"0"
		"wrap"			"0"
		"font"			"ClockSubTextTiny"
		"font_hidef"	"HudFontSmall"
		"font_lodef"	"HudFontSmall"
	}			
	"WaitingForPlayersBG"
	{
		"ControlName"		"CTFImagePanel"
		"fieldName"		"WaitingForPlayersBG"
		"xpos"			"16"
		"ypos"			"-100" //off-screen
		"ypos_hidef"	"-100"	//off-screen
		"ypos_lodef"	"-100"	//off-screen
		"zpos"			"6"
		"wide"			"78"
		"tall"			"20"
		"tall_minmode"	"0"
		"visible"		"0"
		"enabled"		"1"
		"image"			"../hud/objectives_timepanel_suddendeath"	
		"scaleImage"		"1"	
	}
	"OvertimeLabel"
	{
		"ControlName"		"CExLabel"
		"fieldName"		"OvertimeLabel"
		"xpos"			"16"
		"xpos_hidef"	"0"
		"xpos_lodef"	"0"
		"ypos"			"-6"
		"ypos_minmode"	"24"
		"ypos_hidef"	"41"
		"ypos_lodef"	"41"
		"zpos"			"7"
		"wide"			"78"
		"wide_hidef"	"300"
		"wide_lodef"	"300"
		"tall"			"19"
		"tall_hidef"	"19"
		"tall_lodef"	"22"
		"visible"		"0"
		"enabled"		"1"
		"labelText"		"#game_Overtime"
		"textAlignment"		"center"
		"dulltext"		"0"
		"brighttext"		"0"
		"wrap"			"0"
		"font"			"ClockSubText"
		"font_hidef"	"HudFontSmall"
		"font_lodef"	"HudFontSmall"
	}			
	"OvertimeBG"
	{
		"ControlName"		"CTFImagePanel"
		"fieldName"		"OvertimeBG"
		"xpos"			"16"
		"ypos"			"-9"
		"ypos_hidef"	"-100"	//off-screen
		"ypos_lodef"	"-100"	//off-screen
		"zpos"			"6"
		"wide"			"78"
		"tall"			"20"
		"tall_minmode"	"0"
		"visible"		"0"
		"enabled"		"1"
		"image"			"../hud/objectives_timepanel_suddendeath"	
		"scaleImage"		"1"	
	}
	"SuddenDeathLabel"
	{
		"ControlName"		"CExLabel"
		"fieldName"		"SuddenDeathLabel"
		"xpos"			"16"
		"xpos_hidef"	"0"
		"xpos_lodef"	"0"
		"ypos"			"-6"
		"ypos_minmode"	"24"
		"ypos_hidef"	"41"
		"ypos_lodef"	"41"
		"zpos"			"7"
		"wide"			"78"
		"wide_hidef"	"300"
		"wide_lodef"	"300"
		"tall"			"19"
		"tall_hidef"	"19"
		"tall_lodef"	"22"
		"visible"		"0"
		"enabled"		"1"
		"labelText"		"#game_SuddenDeath"
		"textAlignment"		"center"
		"dulltext"		"0"
		"brighttext"		"0"
		"wrap"			"0"
		"font"			"ClockSubTextSuddenDeath"
		"font_hidef"	"HudFontSmall"
		"font_lodef"	"HudFontSmall"
	}			
	"SuddenDeathBG"
	{
		"ControlName"		"CTFImagePanel"
		"fieldName"		"SuddenDeathBG"
		"xpos"			"16"
		"ypos"			"-9"
		"ypos_hidef"	"-100"	//off-screen
		"ypos_lodef"	"-100"	//off-screen
		"zpos"			"6"
		"wide"			"78"
		"tall"			"20"
		"tall_minmode"	"0"
		"visible"		"0"
		"enabled"		"1"
		"image"			"../hud/objectives_timepanel_suddendeath"	
		"scaleImage"		"1"	
	}	
	"SetupLabel"
	{
		"ControlName"	"CExLabel"
		"fieldName"		"SetupLabel"
		"xpos"			"16"
		"xpos_hidef"	"0"
		"xpos_lodef"	"0"
		"ypos"			"-6"
		"ypos_minmode"	"24"
		"ypos_hidef"	"41"
		"ypos_lodef"	"41"
		"zpos"			"7"
		"wide"			"78"
		"wide_hidef"	"300"
		"wide_lodef"	"300"
		"tall"			"19"
		"tall_hidef"	"19"
		"tall_lodef"	"22"
		"visible"		"0"
		"enabled"		"1"
		"labelText"		"#game_Setup"
		"textAlignment"		"center"
		"dulltext"		"0"
		"brighttext"		"0"
		"wrap"			"0"
		"font"			"ClockSubText"
		"font_minmode"	"ClockSubTextSuddenDeath"
		"font_hidef"	"HudFontSmall"
		"font_lodef"	"HudFontSmall"
	}	
	"SetupBG"
	{
		"ControlName"		"CTFImagePanel"
		"fieldName"		"SetupBG"
		"xpos"			"16"	[$WIN32]
		"xpos"			"11"	[$X360]
		"ypos"			"-9"
		"ypos_hidef"	"-100"	//off-screen
		"ypos_lodef"	"-100"	//off-screen
		"zpos"			"6"
		"wide"			"78"
		"tall"			"20"
		"tall_minmode"	"0"
		"visible"		"0"
		"enabled"		"1"
		"image"			"../hud/objectives_timepanel_suddendeath"	
		"scaleImage"		"1"				
	}	
}
