"Resource/UI/Video.res"
{
	"Video"
	{
		"ControlName"		"Frame"
		"fieldName"			"Video"
		"xpos"				"0"
		"ypos"				"250"
		"wide"				"f0"
		"tall"				"f0"
		"visible"			"1"
		"enabled"			"1"
	}
	
	"Title"
	{
		"fieldName"		"Title"
		"xpos"		"c-266"
		"ypos"		"81"
		"wide"		"150"
		"tall"		"19"
		"zpos"		"5"
		"font"		"DefaultExtraLarge"
		"textAlignment"		"west"
		"ControlName"		"Label"
		"labelText"		"#GameUI_Video"
		"fgcolor_override"		"224 224 224 255"
	}
	
	"ImgBackground"	[$WIN32]
	{
		"ControlName"			"L4DMenuBackground"
		"fieldName"				"ImgBackground"
		"xpos"					"0"
		"ypos"					"79"
		"zpos"					"-1"
		"wide"					"f0"
		"tall"					"f0"
		"autoResize"			"0"
		"pinCorner"				"0"
		"visible"				"0"
		"enabled"				"1"
		"tabPosition"			"0"
		"fillColor"				"0 0 0 0"
	}
	
	"DrpAspectRatio"
	{
		"ControlName"		"DropDownMenu"
		"fieldName"			"DrpAspectRatio"
		"xpos"				"c-205"
		"ypos"				"110"
		"zpos"				"3"
		"wide"				"410"
		"tall"				"15"
		"visible"			"1"
		"enabled"			"1"
		"usetitlesafe"		"0"
		"tabPosition"		"0"
		"navUp"				"Btn3rdPartyCredits"
		"navDown"			"DrpResolution"
				
		//button and label
		"BtnDropButton"
		{
			"ControlName"				"BaseModHybridButton"
			"fieldName"					"BtnDropButton"
			"xpos"						"0"
			"ypos"						"0"
			"zpos"						"0"
			"wide"						"410"
			"wideatopen"				"260"	[$WIN32 && !$WIN32WIDE]
			"tall"						"15"
			"autoResize"				"1"
			"pinCorner"					"0"
			"visible"					"1"
			"enabled"					"1"
			"tabPosition"				"1"
			"AllCaps"					"1"
			"labelText"					"#GameUI_AspectRatio"
			"tooltiptext"				"#L4D_aspect_ratio_tip"
			"style"						"DropDownButton"
			"command"					"FlmAspectRatio"
			"ActivationType"			"1"
			"OnlyActiveUser"			"1"
		}
	}
	
	//flyouts		
	"FlmAspectRatio"
	{
		"ControlName"			"FlyoutMenu"
		"fieldName"				"FlmAspectRatio"
		"visible"				"0"
		"wide"					"0"
		"tall"					"0"
		"zpos"					"4"
		"InitialFocus"			"BtnOff"
		"ResourceFile"			"resource/UI/basemodui/DropDownAspectRatio.res"
		"OnlyActiveUser"		"1"
	}
	
	"DrpResolution"
	{
		"ControlName"		"DropDownMenu"
		"fieldName"			"DrpResolution"
		"xpos"				"c-205"
		"ypos"				"130"
		"zpos"				"3"
		"wide"				"410"
		"tall"				"15"
		"visible"			"1"
		"enabled"			"1"
		"usetitlesafe"		"0"
		"tabPosition"		"0"
		"navUp"				"DrpAspectRatio"
		"navDown"			"DrpDisplayMode"
				
		//button and label
		"BtnDropButton"
		{
			"ControlName"				"BaseModHybridButton"
			"fieldName"					"BtnDropButton"
			"xpos"						"0"
			"ypos"						"0"
			"zpos"						"0"
			"wide"						"410"
			"wideatopen"				"260"	[$WIN32 && !$WIN32WIDE]
			"tall"						"15"
			"autoResize"				"1"
			"pinCorner"					"0"
			"visible"					"1"
			"enabled"					"1"
			"tabPosition"				"1"
			"AllCaps"					"1"
			"labelText"					"#GameUI_Resolution"
			"tooltiptext"				"#L4D_resolution_tip"
			"style"						"DropDownButton"
			"command"					"FlmResolution"
			"ActivationType"			"1"
			"OnlyActiveUser"			"1"
		}
	}
	
	//flyouts		
	"FlmResolution"
	{
		"ControlName"			"FlyoutMenu"
		"fieldName"				"FlmResolution"
		"visible"				"0"
		"wide"					"0"
		"tall"					"0"
		"zpos"					"4"
		"InitialFocus"			"BtnOff"
		"ResourceFile"			"resource/UI/basemodui/DropDownResolution.res"
		"OnlyActiveUser"		"1"
	}
	
	"DrpDisplayMode"
	{
		"ControlName"		"DropDownMenu"
		"fieldName"			"DrpDisplayMode"
		"xpos"				"c-205"
		"ypos"				"150"
		"zpos"				"3"
		"wide"				"410"
		"tall"				"15"
		"visible"			"1"
		"enabled"			"1"
		"usetitlesafe"		"0"
		"tabPosition"		"0"
		"navUp"				"DrpResolution"
		"navDown"			"DrpLockMouse"
				
		//button and label
		"BtnDropButton"
		{
			"ControlName"				"BaseModHybridButton"
			"fieldName"					"BtnDropButton"
			"xpos"						"0"
			"ypos"						"0"
			"zpos"						"0"
			"wide"						"410"
			"wideatopen"				"260"	[$WIN32 && !$WIN32WIDE]
			"tall"						"15"
			"autoResize"				"1"
			"pinCorner"					"0"
			"visible"					"1"
			"enabled"					"1"
			"tabPosition"				"1"
			"AllCaps"					"1"
			"labelText"					"#GameUI_DisplayMode"
			"tooltiptext"				"#L4D_display_mode_tip"
			"style"						"DropDownButton"
			"command"					"FlmDisplayMode"
			"ActivationType"			"1"
			"OnlyActiveUser"			"1"
		}
	}
	
	//flyouts		
	"FlmDisplayMode"
	{
		"ControlName"			"FlyoutMenu"
		"fieldName"				"FlmDisplayMode"
		"visible"				"0"
		"wide"					"0"
		"tall"					"0"
		"zpos"					"4"
		"InitialFocus"			"BtnOff"
		"ResourceFile"			"resource/UI/basemodui/DropDownDisplayMode.res"
		"OnlyActiveUser"		"1"
	}
	
	"DrpLockMouse"
	{
		"ControlName"		"DropDownMenu"
		"fieldName"			"DrpLockMouse"
		"xpos"				"c-205"
		"ypos"				"170"
		"zpos"				"3"
		"wide"				"410"
		"tall"				"15"
		"visible"			"1"
		"enabled"			"1"
		"usetitlesafe"		"0"
		"tabPosition"		"0"
		"navUp"				"DrpResolution"
		"navDown"			"SldFilmGrain"
				
		//button and label
		"BtnDropButton"
		{
			"ControlName"				"BaseModHybridButton"
			"fieldName"					"BtnDropButton"
			"xpos"						"0"
			"ypos"						"0"
			"zpos"						"0"
			"wide"						"410"
			"wideatopen"				"260"	[$WIN32 && !$WIN32WIDE]
			"tall"						"15"
			"autoResize"				"1"
			"pinCorner"					"0"
			"visible"					"1"
			"enabled"					"1"
			"tabPosition"				"1"
			"AllCaps"					"1"
			"labelText"					"#GameUI_LockMouseToWindow"
			"tooltiptext"				"#GameUI_LockMouseToWindow"
			"style"						"DropDownButton"
			"command"					"FlmLockMouse"
			"ActivationType"			"1"
			"OnlyActiveUser"			"1"
		}
	}
	
	//flyouts		
	"FlmLockMouse"
	{
		"ControlName"			"FlyoutMenu"
		"fieldName"				"FlmLockMouse"
		"visible"				"0"
		"wide"					"0"
		"tall"					"0"
		"zpos"					"4"
		"InitialFocus"			"BtnOff"
		"ResourceFile"			"resource/UI/basemodui/DropDownLockMouseToWindow.res"
		"OnlyActiveUser"		"1"
	}
	
	"BtnAdvanced"
	{
		"ControlName"			"BaseModHybridButton"
		"fieldName"				"BtnAdvanced"
		"xpos"					"c-205"
		"ypos"					"190"
		"zpos"					"0"
		"wide"					"260"
		"tall"					"15"
		"autoResize"			"1"
		"pinCorner"				"0"
		"visible"				"1"
		"enabled"				"1"
		"tabPosition"			"0"
		"wrap"					"1"
		"navUp"					"SldFilmGrain"
		"navDown"				"DrpAntialias"
		"AllCaps"				"1"
		"labelText"				"#L4D_advanced_settings"
		"tooltiptext"			"#L4D_advanced_settings_tip"
		"style"					"DefaultButton"
		"command"				"ShowAdvanced"
		EnabledTextInsetX		"2"
		DisabledTextInsetX		"2"
		FocusTextInsetX			"2"
		OpenTextInsetX			"2"
	}
	
	"DrpAntialias"
	{
		"ControlName"		"DropDownMenu"
		"fieldName"			"DrpAntialias"
		"xpos"				"c-205"
		"ypos"				"190"
		"zpos"				"3"
		"wide"				"410"
		"tall"				"15"
		"visible"			"0"
		"enabled"			"1"
		"usetitlesafe"		"0"
		"tabPosition"		"0"
		"navUp"				"BtnAdvanced"
		"navDown"			"DrpFiltering"
				
		//button and label
		"BtnDropButton"
		{
			"ControlName"				"BaseModHybridButton"
			"fieldName"					"BtnDropButton"
			"xpos"						"0"
			"ypos"						"0"
			"zpos"						"0"
			"wide"						"410"
			"wideatopen"				"260"	[$WIN32 && !$WIN32WIDE]
			"tall"						"15"
			"autoResize"				"1"
			"pinCorner"					"0"
			"visible"					"1"
			"enabled"					"1"
			"tabPosition"				"1"
			"AllCaps"					"1"
			"labelText"					"#L4D360UI_VideoOptions_Antialiasing"
			"tooltiptext"				"#L4D_anti_alias_tip"
			"style"						"DropDownButton"
			"command"					"FlmAntialias"
			"ActivationType"			"1"
			"OnlyActiveUser"			"1"
		}
	}
	
	//flyouts		
	"FlmAntialias"
	{
		"ControlName"			"FlyoutMenu"
		"fieldName"				"FlmAntialias"
		"visible"				"0"
		"wide"					"0"
		"tall"					"0"
		"zpos"					"4"
		"InitialFocus"			"BtnOff"
		"ResourceFile"			"resource/UI/basemodui/DropDownAntialias.res"
		"OnlyActiveUser"		"1"
	}
	
	"DrpFiltering"
	{
		"ControlName"		"DropDownMenu"
		"fieldName"			"DrpFiltering"
		"xpos"				"c-205"
		"ypos"				"210"
		"zpos"				"3"
		"wide"				"410"
		"tall"				"15"
		"visible"			"0"
		"enabled"			"1"
		"usetitlesafe"		"0"
		"tabPosition"		"0"
		"navUp"				"DrpAntialias"
		"navDown"			"DrpVSync"
				
		//button and label
		"BtnDropButton"
		{
			"ControlName"				"BaseModHybridButton"
			"fieldName"					"BtnDropButton"
			"xpos"						"0"
			"ypos"						"0"
			"zpos"						"0"
			"wide"						"410"
			"wideatopen"				"260"	[$WIN32 && !$WIN32WIDE]
			"tall"						"15"
			"autoResize"				"1"
			"pinCorner"					"0"
			"visible"					"1"
			"enabled"					"1"
			"tabPosition"				"1"
			"AllCaps"					"1"
			"labelText"					"#GameUI_Filtering_Mode"
			"tooltiptext"				"#L4D_filtering_tip"
			"style"						"DropDownButton"
			"command"					"FlmFiltering"
			"ActivationType"			"1"
			"OnlyActiveUser"			"1"
		}
	}
	
	//flyouts		
	"FlmFiltering"
	{
		"ControlName"			"FlyoutMenu"
		"fieldName"				"FlmFiltering"
		"visible"				"0"
		"wide"					"0"
		"tall"					"0"
		"zpos"					"4"
		"InitialFocus"			"BtnOff"
		"ResourceFile"			"resource/UI/basemodui/DropDownFiltering.res"
		"OnlyActiveUser"		"1"
	}
	
	"DrpVSync"
	{
		"ControlName"		"DropDownMenu"
		"fieldName"			"DrpVSync"
		"xpos"				"c-205"
		"ypos"				"230"
		"zpos"				"3"
		"wide"				"410"
		"tall"				"15"
		"visible"			"0"
		"enabled"			"1"
		"usetitlesafe"		"0"
		"tabPosition"		"0"
		"navUp"				"DrpFiltering"
		"navDown"			"DrpQueuedMode"
				
		//button and label
		"BtnDropButton"
		{
			"ControlName"				"BaseModHybridButton"
			"fieldName"					"BtnDropButton"
			"xpos"						"0"
			"ypos"						"0"
			"zpos"						"0"
			"wide"						"410"
			"wideatopen"				"260"	[$WIN32 && !$WIN32WIDE]
			"tall"						"15"
			"autoResize"				"1"
			"pinCorner"					"0"
			"visible"					"1"
			"enabled"					"1"
			"tabPosition"				"1"
			"AllCaps"					"1"
			"labelText"					"#GameUI_Wait_For_VSync"
			"tooltiptext"				"#L4D_vertical_sync_tip"
			"style"						"DropDownButton"
			"command"					"FlmVSync"
			"ActivationType"			"1"
			"OnlyActiveUser"			"1"
		}
	}
	
	//flyouts		
	"FlmVSync"
	{
		"ControlName"			"FlyoutMenu"
		"fieldName"				"FlmVSync"
		"visible"				"0"
		"wide"					"0"
		"tall"					"0"
		"zpos"					"4"
		"InitialFocus"			"BtnOff"
		"ResourceFile"			"resource/UI/basemodui/DropDownVSync.res"
		"OnlyActiveUser"		"1"
	}
	
	"DrpQueuedMode"
	{
		"ControlName"		"DropDownMenu"
		"fieldName"			"DrpQueuedMode"
		"xpos"				"c-205"
		"ypos"				"250"
		"zpos"				"3"
		"wide"				"410"
		"tall"				"15"
		"visible"			"0"
		"enabled"			"1"
		"usetitlesafe"		"0"
		"tabPosition"		"0"
		"navUp"				"DrpVSync"
		"navDown"			"DrpShaderDetail"
				
		//button and label
		"BtnDropButton"
		{
			"ControlName"				"BaseModHybridButton"
			"fieldName"					"BtnDropButton"
			"xpos"						"0"
			"ypos"						"0"
			"zpos"						"0"
			"wide"						"410"
			"wideatopen"				"260"	[$WIN32 && !$WIN32WIDE]
			"tall"						"15"
			"autoResize"				"1"
			"pinCorner"					"0"
			"visible"					"1"
			"enabled"					"1"
			"tabPosition"				"1"
			"AllCaps"					"1"
			"labelText"					"#L4D360UI_VideoOptions_Queued_Mode"
			"tooltiptext"				"#L4D360UI_VideoOptions_Queued_Mode_Tooltip"
			"style"						"DropDownButton"
			"command"					"FlmQueuedMode"
			"ActivationType"			"1"
			"OnlyActiveUser"			"1"
		}
	}
	
	//flyouts		
	"FlmQueuedMode"
	{
		"ControlName"			"FlyoutMenu"
		"fieldName"				"FlmQueuedMode"
		"visible"				"0"
		"wide"					"0"
		"tall"					"0"
		"zpos"					"4"
		"InitialFocus"			"BtnOn"
		"ResourceFile"			"resource/UI/basemodui/DropDownQueuedMode.res"
		"OnlyActiveUser"		"1"
	}
	
	"DrpShaderDetail"
	{
		"ControlName"		"DropDownMenu"
		"fieldName"			"DrpShaderDetail"
		"xpos"				"c-205"
		"ypos"				"270"
		"zpos"				"3"
		"wide"				"410"
		"tall"				"15"
		"visible"			"0"
		"enabled"			"1"
		"usetitlesafe"		"0"
		"tabPosition"		"0"
		"navUp"				"DrpQueuedMode"
		"navDown"			"DrpCPUDetail"
				
		//button and label
		"BtnDropButton"
		{
			"ControlName"				"BaseModHybridButton"
			"fieldName"					"BtnDropButton"
			"xpos"						"0"
			"ypos"						"0"
			"zpos"						"0"
			"wide"						"410"
			"wideatopen"				"260"	[$WIN32 && !$WIN32WIDE]
			"tall"						"15"
			"autoResize"				"1"
			"pinCorner"					"0"
			"visible"					"1"
			"enabled"					"1"
			"tabPosition"				"1"
			"AllCaps"					"1"
			"labelText"					"#GameUI_Shader_Detail"
			"tooltiptext"				"#L4D_shader_detail_tip"
			"style"						"DropDownButton"
			"command"					"FlmShaderDetail"
			"ActivationType"			"1"
			"OnlyActiveUser"			"1"
		}
	}
	
	//flyouts		
	"FlmShaderDetail"
	{
		"ControlName"			"FlyoutMenu"
		"fieldName"				"FlmShaderDetail"
		"visible"				"0"
		"wide"					"0"
		"tall"					"0"
		"zpos"					"4"
		"InitialFocus"			"BtnOff"
		"ResourceFile"			"resource/UI/basemodui/DropDownShaderDetail.res"
		"OnlyActiveUser"		"1"
	}
	
	"DrpCPUDetail"
	{
		"ControlName"		"DropDownMenu"
		"fieldName"			"DrpCPUDetail"
		"xpos"				"c-205"
		"ypos"				"290"
		"zpos"				"3"
		"wide"				"410"
		"tall"				"15"
		"visible"			"0"
		"enabled"			"1"
		"usetitlesafe"		"0"
		"tabPosition"		"0"
		"navUp"				"DrpShaderDetail"
		"navDown"			"DrpModelDetail"
				
		//button and label
		"BtnDropButton"
		{
			"ControlName"				"BaseModHybridButton"
			"fieldName"					"BtnDropButton"
			"xpos"						"0"
			"ypos"						"0"
			"zpos"						"0"
			"wide"						"410"
			"wideatopen"				"260"	[$WIN32 && !$WIN32WIDE]
			"tall"						"15"
			"autoResize"				"1"
			"pinCorner"					"0"
			"visible"					"1"
			"enabled"					"1"
			"tabPosition"				"1"
			"AllCaps"					"1"
			"labelText"					"#L4D360UI_VideoOptions_CPU_Detail"
			"tooltiptext"				"#L4D_effect_detail_tip"
			"style"						"DropDownButton"
			"command"					"FlmCPUDetail"
			"ActivationType"			"1"
			"OnlyActiveUser"			"1"
		}
	}
	
	//flyouts		
	"FlmCPUDetail"
	{
		"ControlName"			"FlyoutMenu"
		"fieldName"				"FlmCPUDetail"
		"visible"				"0"
		"wide"					"0"
		"tall"					"0"
		"zpos"					"4"
		"InitialFocus"			"BtnOff"
		"ResourceFile"			"resource/UI/basemodui/DropDownCPUDetail.res"
		"OnlyActiveUser"		"1"
	}
	
	"DrpModelDetail"
	{
		"ControlName"		"DropDownMenu"
		"fieldName"			"DrpModelDetail"
		"xpos"				"c-205"
		"ypos"				"310"
		"zpos"				"3"
		"wide"				"410"
		"tall"				"15"
		"visible"			"0"
		"enabled"			"1"
		"usetitlesafe"		"0"
		"tabPosition"		"0"
		"navUp"				"DrpCPUDetail"
		"navDown"			"DrpPagedPoolMem"
				
		//button and label
		"BtnDropButton"
		{
			"ControlName"				"BaseModHybridButton"
			"fieldName"					"BtnDropButton"
			"xpos"						"0"
			"ypos"						"0"
			"zpos"						"0"
			"wide"						"410"
			"wideatopen"				"260"	[$WIN32 && !$WIN32WIDE]
			"tall"						"15"
			"autoResize"				"1"
			"pinCorner"					"0"
			"visible"					"1"
			"enabled"					"1"
			"tabPosition"				"1"
			"AllCaps"					"1"
			"labelText"					"#L4D360UI_VideoOptions_Model_Texture_Detail"
			"tooltiptext"				"#L4D_model_texture_tip"
			"style"						"DropDownButton"
			"command"					"FlmModelDetail"
			"ActivationType"			"1"
			"OnlyActiveUser"			"1"
		}
	}
	
	//flyouts		
	"FlmModelDetail"
	{
		"ControlName"			"FlyoutMenu"
		"fieldName"				"FlmModelDetail"
		"visible"				"0"
		"wide"					"0"
		"tall"					"0"
		"zpos"					"4"
		"InitialFocus"			"BtnOff"
		"ResourceFile"			"resource/UI/basemodui/DropDownModelDetail.res"
		"OnlyActiveUser"		"1"
	}
	
	"DrpPagedPoolMem"
	{
		"ControlName"		"DropDownMenu"
		"fieldName"			"DrpPagedPoolMem"
		"xpos"				"c-205"
		"ypos"				"330"
		"zpos"				"3"
		"wide"				"410"
		"tall"				"15"
		"visible"			"0"
		"enabled"			"1"
		"usetitlesafe"		"0"
		"tabPosition"		"0"
		"navUp"				"DrpModelDetail"
		"navDown"			"BtnUseRecommended"
				
		//button and label
		"BtnDropButton"
		{
			"ControlName"				"BaseModHybridButton"
			"fieldName"					"BtnDropButton"
			"xpos"						"0"
			"ypos"						"0"
			"zpos"						"0"
			"wide"						"410"
			"wideatopen"				"260"	[$WIN32 && !$WIN32WIDE]
			"tall"						"15"
			"autoResize"				"1"
			"pinCorner"					"0"
			"visible"					"1"
			"enabled"					"1"
			"tabPosition"				"1"
			"AllCaps"					"1"
			"labelText"					"#L4D360UI_VideoOptions_Paged_Pool_Mem"
			"tooltiptext"				"#L4D_paged_pool_mem_tip"
			"style"						"DropDownButton"
			"command"					"FlmPagedPoolMem"
			"ActivationType"			"1"
			"OnlyActiveUser"			"1"
		}
	}
	
	//flyouts		
	"FlmPagedPoolMem"
	{
		"ControlName"			"FlyoutMenu"
		"fieldName"				"FlmPagedPoolMem"
		"visible"				"0"
		"wide"					"0"
		"tall"					"0"
		"zpos"					"4"
		"InitialFocus"			"BtnOff"
		"ResourceFile"			"resource/UI/basemodui/DropDownPagedPoolMem.res"
		"OnlyActiveUser"		"1"
	}
	
	"BtnUseRecommended"
	{
		"ControlName"			"BaseModHybridButton"
		"fieldName"				"BtnUseRecommended"
		"xpos"					"c-205"
		"ypos"					"350"
		"zpos"					"0"
		"wide"					"280"
		"tall"					"15"
		"autoResize"			"1"
		"pinCorner"				"0"
		"visible"				"1"
		"enabled"				"1"
		"tabPosition"			"0"
		"wrap"					"1"
		"navUp"					"DrpPagedPoolMem"
		"navDown"				"BtnCancel"
		"AllCaps"				"1"
		"labelText"				"#L4D360UI_UseRecommended"
		"tooltiptext"			"#L4D360UI_UseRecommended_Tooltip"
		"style"					"DefaultButton"
		"command"				"UseRecommended"
		EnabledTextInsetX		"2"
		DisabledTextInsetX		"2"
		FocusTextInsetX			"2"
		OpenTextInsetX			"2"
	}
	
	"Btn3rdPartyCredits"
	{
		"ControlName"			"BaseModHybridButton"
		"fieldName"				"Btn3rdPartyCredits"
		"xpos"					"c-140"
		"ypos"					"380"
		"zpos"					"0"
		"wide"					"280"
		"tall"					"15"
		"autoResize"			"1"
		"pinCorner"				"0"
		"visible"				"1"
		"enabled"				"1"
		"tabPosition"			"0"
		"wrap"					"1"
		"navUp"					"BtnDone"
		"navDown"				"DrpAspectRatio"
		"AllCaps"				"1"
		"labelText"				"#GameUI_ThirdPartyVideo_Title"
		"tooltiptext"			"#GameUI_ThirdPartyTechCredits"
		"style"					"DialogButton"
		"command"				"3rdPartyCredits"
		EnabledTextInsetX		"2"
		DisabledTextInsetX		"2"
		FocusTextInsetX			"2"
		OpenTextInsetX			"2"
	}
	
	"BtnDone" [$WIN32]
	{
		"ControlName"			"CNB_Button"
		"fieldName"				"BtnDone"
		"xpos"		"c-264"
		"ypos"		"r23"
		"wide"		"117"
		"tall"		"27"
		"zpos"		"1"
		"visible"				"1"
		"enabled"				"1"
		"tabPosition"			"0"
		"labelText"				"#L4D360UI_Done_Caps"
		"command"				"Back"
		"textAlignment"		"center"
		"font"		"DefaultMedium"
		"fgcolor_override"		"113 142 181 255"
	}
	
	"BtnCancel" [$WIN32]
	{
		"ControlName"			"CNB_Button"
		"fieldName"				"BtnCancel"
		"xpos"		"c-127"
		"ypos"		"r23"
		"wide"		"117"
		"tall"		"27"
		"zpos"		"1"
		"visible"				"1"
		"enabled"				"1"
		"tabPosition"			"0"
		"labelText"				"#L4D360UI_Cancel_Caps"
		"command"				"Cancel"
		"textAlignment"		"center"
		"font"		"DefaultMedium"
		"fgcolor_override"		"113 142 181 255"
	}
}
