"LightmappedGeneric"
{
	"$baseTexture" "moon/moon_wallpanels02_stripe_grnv"
	$basealphaenvmapmask  1
	"$envmapcontrast" "0"
	"$envmap" "cubemaps\cubemap_specular001"
	"$envmaptint" "[ 0.09 0.070 0.04 ]"

	"$detail" "detail/moon_wallpanels02_detail_blu.vtf"
	"$detailscale" "0.5"
	"$detailblendmode" "0"
	"$detailblendfactor" "0.5"
	"$surfaceprop"	"metal"

	$reflectivity "[ 0.6 0.6 0.6 ]"
}






