"VertexLitGeneric"
{
	"$baseTexture" "moon/moon_wallpanels02"
	"$basealphaenvmapmask"  "1"
	"$envmapcontrast" "0"
	"$envmap" "cubemaps\cubemap_specular001"
	"$envmaptint" "[ 0.09 0.070 0.04 ]"

	"$detail" "detail/moon_wallpanels02_detail.vtf"
	"$detailscale" "0.5"
	"$detailblendmode" "0"
	"$detailblendfactor" "0.5"
	"$surfaceprop"	"metal"

	$reflectivity "[ 0.7 0.7 0.7 ]"
}






