"VertexLitGeneric"
{
	"$basetexture" "models/props_vehicles/cortina_maroon"
	"$basemapalphaphongmask" "1"
	"$phong" "1"
	"$phongexponent" "15"
	"$phongboost" ".25"	
	"$phongfresnelranges"	"[.7 15 20]"
	"$lightwarptexture" "models\props_vehicles\pickup_lightwarp"

	"$envmap" "cubemaps/cubemap_sheen001"
	"$envmaptint" "[.1 .1 .1]"
	"$normalmapalphaenvmapmask" "1"
}


