"VertexLitGeneric"
{
	"$basetexture" "models/props_vehicles/forklift_green2"
	"$basemapalphaphongmask" "1"
	"$phong" "1"
	"$phongexponent" "15"
	"$phongboost" ".1"	
	"$phongfresnelranges"	"[.7 15 20]"
}
