"VertexlitGeneric"
{
	"$basetexture" "models/custom_cars/vw_beetle/vw_beetle_8"
	"$surfaceprop" "metal"

	"$phong" "1"
	"$phongexponent" "15"
	"$phongboost" ".3"	
	"$phongfresnelranges"	"[.7 15 20]"

	"$envmap" "env_cubemap"
	"$envmaptint" "[.1 .1 .1]"
	"$normalmapalphaenvmapmask" "1"
}