"LightmappedGeneric" {
	"$baseTexture" "Tile/floor_tile_003a_green"
	"$envmap" "env_cubemap"
	"$envmapcontrast" 1
	"$envmapsaturation" 1
	"$envmaptint" "[ .75 .75 .75]"
	"$normalmapalphaenvmapmask" 1
	"$bumpmap" "Tile/floor_tile_001a_normal"
	"%keywords" "tf"
}
