"unLitGeneric"
{
	"$basetexture"		"models/workshop/player/items/soldier/merc_goggle/merc_goggle"
	"$bumpmap"		"models/workshop/player/items/soldier/merc_goggle/merc_gogglen"
	"$lightwarptexture"		"models/player/pyro/pyro_lightwarp"
	"$phong"		"1"
	"$phongexponent"		"25"
	"$phongboost"		"0.100000"
	"$phongfresnelranges"		"[.25 .5 1]"
	"$rimlight"		"1"
	"$rimlightexponent"		"4"
	"$rimlightboost"		"2"
	"$blendtintbybasealpha"		"0"
	"$blendtintcoloroverbase"		"0"
	"$colortint_base"		"{ 184 56 59 }"
	"$color2"		"{ 184 56 59  }"
	"$colortint_tmp"		"[0 0 0]"
	"$envmap"		"env_cubemap"
	"$bumpmapalphaphongmask"		"1"
	"$basealphaenvmapmask"		"0"
	"$normalmapalphaenvmapmask"		"0"
	"$envmaptint"		"[0.568627 0.568627 0.568627]"
	"$cloakPassEnabled"		"1"
	"$detailscale"		"5"
	"$detailblendfactor"		"0"
	"$detailblendmode"		"6"
	"$yellow"		"0"
	">=DX90"
	{
		"$selfillum"		"0"
	}
	"proxies"
	{
		"invis"
		{
		}
		"AnimatedTexture"
		{
			"animatedtexturevar"		"$detail"
			"animatedtextureframenumvar"		"$detailframe"
			"animatedtextureframerate"		"30"
		}
		"BurnLevel"
		{
			"resultVar"		"$detailblendfactor"
		}
		"ItemTintColor"
		{
			"resultVar"		"$colortint_tmp"
		}
		"SelectFirstIfNonZero"
		{
			"srcVar1"		"$colortint_tmp"
			"srcVar2"		"$colortint_base"
			"resultVar"		"$color2"
		}
		"YellowLevel"
		{
			"resultVar"		"$yellow"
		}
		"Multiply"
		{
			"srcVar1"		"$color2"
			"srcVar2"		"$yellow"
			"resultVar"		"$color2"
		}
	}
}
