"LightmappedGeneric"
{
	"$baseTexture" "mecha/computerwall_gray_stained002"
	"%keywords" "tf"
	"$detail" "overlays/detail001"
	"$detailscale" "1.9"
	"$detailblendmode" "0"
	"$detailblendfactor" "1"
}
